<svg xmlns="http://www.w3.org/2000/svg" width="16" height="15" viewBox="0 0 16 15">
  <path fill="#FFF" d="M10.6996795,1.99703038 C13.6302861,2.00108607 16,4.38059157 16,7.3212488 C16,8.64770956 15.4715136,9.89664421 14.5505733,10.8212483 C14.2915705,11.0812805 13.8714996,11.0814677 13.6122791,10.8216539 C13.3530586,10.56184 13.352872,10.1404537 13.6118748,9.88042144 C14.2871543,9.20243459 14.6730461,8.29049672 14.6730461,7.3212488 C14.6730461,5.11314307 12.8934282,3.32795239 10.6922154,3.32795239 C10.6904427,3.32795239 10.6887322,3.32767161 10.6869595,3.32767161 L6.98652853,3.32767161 L7.84433534,4.1881646 C8.10343144,4.44807204 8.10343144,4.8694896 7.84433534,5.12939704 C7.58523925,5.38930448 7.16513721,5.38930448 6.90604111,5.12939704 L4.91562577,3.13274883 C4.90016895,3.11724361 4.88555184,3.10092725 4.87168113,3.08395574 C4.86539889,3.07631232 4.85995634,3.06820094 4.8540784,3.06033914 C4.84698754,3.05085506 4.83964789,3.04155817 4.83305464,3.03166852 C4.82674129,3.02221564 4.82126765,3.01238838 4.8155141,3.00271712 C4.81016486,2.9937946 4.80456682,2.98502806 4.79965298,2.97582476 C4.79439704,2.96596631 4.7899186,2.95579589 4.78519137,2.94571905 C4.78068183,2.93611018 4.7758924,2.9266573 4.77181826,2.91679885 C4.76780633,2.90703399 4.76454081,2.89705075 4.76099538,2.88712991 C4.75723225,2.87655391 4.75318922,2.8661339 4.7499237,2.85533952 C4.74690697,2.84541868 4.74472996,2.83534184 4.74221084,2.82529621 C4.73944292,2.81428344 4.73636399,2.80342667 4.73415587,2.79219552 C4.73185446,2.78059001 4.73051715,2.7688909 4.72883773,2.75719178 C4.72743822,2.74739573 4.72557221,2.73775566 4.7246081,2.72783482 C4.72249328,2.70624606 4.72137368,2.68456371 4.72134258,2.66288135 C4.72134258,2.66263177 4.72131148,2.66241339 4.72131148,2.66216381 C4.72131148,2.66194543 4.72134258,2.66172704 4.72134258,2.66150866 C4.72134258,2.63979511 4.72249328,2.61811276 4.7246081,2.5964928 C4.72560331,2.58657196 4.72743822,2.57696309 4.72883773,2.56716703 C4.73048605,2.55549912 4.73185446,2.54376881 4.73415587,2.53216329 C4.73636399,2.52093215 4.73944292,2.51007537 4.74221084,2.49906261 C4.74472996,2.48901697 4.74693807,2.47890894 4.7499237,2.4689881 C4.75318922,2.45819372 4.75720115,2.44777371 4.76099538,2.43722891 C4.76454081,2.42730806 4.76780633,2.41729363 4.77184936,2.40749757 C4.7759235,2.39767032 4.78071293,2.38821744 4.78522247,2.37860857 C4.7899497,2.36853173 4.79442814,2.35836131 4.79968408,2.34847166 C4.80459792,2.33926836 4.81019596,2.33053302 4.8155141,2.3216105 C4.82126765,2.31190804 4.82674129,2.30208078 4.83305464,2.2926279 C4.83961679,2.28276945 4.84692534,2.27350376 4.8540162,2.26401968 C4.85992524,2.25612668 4.86539889,2.24801529 4.87168113,2.24034068 C4.88555184,2.22340037 4.90016895,2.20708401 4.91562577,2.19157879 L6.90604111,0.19493058 C7.16513721,-0.0649768601 7.58523925,-0.0649768601 7.84433534,0.19493058 C8.10343144,0.454838021 8.10343144,0.876255583 7.84433534,1.13616302 L6.98652853,1.996656 L10.6925575,1.996656 C10.6949522,1.996656 10.6972847,1.99699918 10.6996795,1.99703038 Z M11.1461225,12.4243865 C11.1402134,12.4323107 11.1347397,12.4404221 11.1283952,12.4481903 C11.1146176,12.4650057 11.1000937,12.4811973 11.0847922,12.4965776 C11.0846678,12.4967024 11.0845745,12.4968272 11.0844501,12.496952 L9.09401555,14.4935946 C8.83491696,14.7535013 8.41481086,14.7535013 8.15571227,14.4935946 C7.89661367,14.2336879 7.89661367,13.8122715 8.15571227,13.5523648 L9.01352736,12.6918742 L5.30749373,12.6918742 C5.30509899,12.6918742 5.30276645,12.6915311 5.3003717,12.6914999 C2.36973673,12.6874442 8.8817842e-16,10.3079454 8.8817842e-16,7.36720293 C8.8817842e-16,6.04074593 0.528491474,4.79181482 1.44944066,3.86727572 C1.70844596,3.60724423 2.12852095,3.60705704 2.38774395,3.86687015 C2.64696695,4.12668327 2.64715355,4.54806844 2.38814825,4.80809993 C1.71286223,5.48608487 1.32696673,6.39802016 1.32696673,7.36726532 C1.32696673,9.5753648 3.10660182,11.3605504 5.30783583,11.3605504 C5.30960856,11.3605504 5.31131909,11.3608312 5.31309182,11.3608312 L9.01352736,11.3608312 L8.15571227,10.5003407 C7.89661367,10.240434 7.89661367,9.81901759 8.15571227,9.55911088 C8.41481086,9.29920418 8.83491696,9.29920418 9.09401555,9.55911088 L11.0844501,11.5557534 C11.0846678,11.5559718 11.0848855,11.5562214 11.0851032,11.556471 C11.1003114,11.5717578 11.114742,11.5878245 11.1283952,11.6045152 C11.1347086,11.6122522 11.1402134,11.6203947 11.1461536,11.6283501 C11.1531823,11.6377718 11.1604598,11.6470062 11.167022,11.6568335 C11.1733354,11.6663175 11.1788402,11.6761759 11.1846249,11.6859096 C11.189912,11.6948009 11.195479,11.703505 11.2003618,11.7126459 C11.20568,11.7225667 11.2101585,11.7327995 11.2149169,11.7429387 C11.2194264,11.7524851 11.2241848,11.7618756 11.2282279,11.7716716 C11.232271,11.7814988 11.2355365,11.7915444 11.2391131,11.8015277 C11.2428763,11.8120412 11.2469193,11.8223988 11.2501538,11.833162 C11.2531705,11.8431452 11.2553787,11.8532844 11.2578978,11.8633612 C11.2606658,11.8743115 11.2637136,11.8851371 11.2659218,11.8963058 C11.2682232,11.9080049 11.2695916,11.9197975 11.271271,11.931559 C11.2726706,11.9412614 11.2745055,11.9508079 11.2754696,11.9606663 C11.2797615,12.0043429 11.2797615,12.0483626 11.2754696,12.0920391 C11.2745055,12.1018664 11.2726395,12.1114128 11.271271,12.1211152 C11.2695605,12.1328767 11.2681921,12.1446694 11.2658907,12.1563685 C11.2636825,12.167506 11.2606347,12.1783315 11.2578667,12.1892819 C11.2553476,12.1993587 11.2531394,12.2095291 11.2501227,12.2195123 C11.2468882,12.2302442 11.2428763,12.2406018 11.2391131,12.2511154 C11.2355676,12.2610986 11.232271,12.2711442 11.2282279,12.2809714 C11.2241848,12.2907675 11.2194264,12.3001891 11.2149169,12.3097356 C11.2101585,12.3198748 11.20568,12.3300764 11.2003929,12.3399972 C11.1955101,12.3491693 11.1899431,12.3578734 11.1846249,12.3667959 C11.1788402,12.3765295 11.1733665,12.3863567 11.1670531,12.3958408 C11.1604909,12.405668 11.1531823,12.4149337 11.1461225,12.4243865 Z"/>
</svg>
