2022-01-14 07:47:51 [::1][-][-][info][yii\web\Session::open] Session started
    in C:\xampp\htdocs\cms_wap\common\controllers\ApiController.php:121
    in C:\xampp\htdocs\cms_wap\website\controllers\AuthController.php:33
2022-01-14 07:47:51 [::1][-][-][info][yii\db\Connection::open] Opening DB connection: mysql:host=192.168.146.252:3307;dbname=meuclip
    in C:\xampp\htdocs\cms_wap\common\models\VtUserBase.php:59
    in C:\xampp\htdocs\cms_wap\common\controllers\ApiController.php:224
    in C:\xampp\htdocs\cms_wap\website\controllers\AuthController.php:33
2022-01-14 07:47:51 [::1][-][-][info][yii\db\Command::query] SELECT * FROM `vt_user` WHERE `id`='74'
    in C:\xampp\htdocs\cms_wap\common\models\VtUserBase.php:59
    in C:\xampp\htdocs\cms_wap\common\controllers\ApiController.php:224
    in C:\xampp\htdocs\cms_wap\website\controllers\AuthController.php:33
2022-01-14 07:47:51 [::1][-][-][info][yii\db\Command::query] SHOW FULL COLUMNS FROM `vt_user`
    in C:\xampp\htdocs\cms_wap\common\models\VtUserBase.php:59
    in C:\xampp\htdocs\cms_wap\common\controllers\ApiController.php:224
    in C:\xampp\htdocs\cms_wap\website\controllers\AuthController.php:33
2022-01-14 07:47:51 [::1][-][-][info][yii\db\Command::query] SELECT
    kcu.constraint_name,
    kcu.column_name,
    kcu.referenced_table_name,
    kcu.referenced_column_name
FROM information_schema.referential_constraints AS rc
JOIN information_schema.key_column_usage AS kcu ON
    (
        kcu.constraint_catalog = rc.constraint_catalog OR
        (kcu.constraint_catalog IS NULL AND rc.constraint_catalog IS NULL)
    ) AND
    kcu.constraint_schema = rc.constraint_schema AND
    kcu.constraint_name = rc.constraint_name
WHERE rc.constraint_schema = database() AND kcu.table_schema = database()
AND rc.table_name = 'vt_user' AND kcu.table_name = 'vt_user'
    in C:\xampp\htdocs\cms_wap\common\models\VtUserBase.php:59
    in C:\xampp\htdocs\cms_wap\common\controllers\ApiController.php:224
    in C:\xampp\htdocs\cms_wap\website\controllers\AuthController.php:33
2022-01-14 07:47:51 [::1][-][-][info][application] WAF |
    in C:\xampp\htdocs\cms_wap\common\libs\VtHelper.php:152
    in C:\xampp\htdocs\cms_wap\common\controllers\ApiController.php:236
    in C:\xampp\htdocs\cms_wap\website\controllers\AuthController.php:33
2022-01-14 07:47:51 [::1][-][-][info][application] Response time of /auth/captcha?v=61e11c9749d816.82416597: 31 ms
    in C:\xampp\htdocs\cms_wap\common\controllers\ApiController.php:353
2022-01-14 07:47:51 [::1][-][-][info][application] $_GET = [
    'v' => '61e11c9749d816.82416597'
]

$_POST = []

$_FILES = []

$_COOKIE = [
    'language' => 'd88ad7f0d1a7cb61248418846707b03b2cecc3ec9a3493e0a8e9f6176a969066a:2:{i:0;s:8:\"language\";i:1;s:5:\"en-US\";}'
    'Phpstorm-65568aef' => '1243b413-1936-42ae-9bbc-67a1a69d164e'
    '_identity' => '574360b07b1694b4067dd74392fcd43473138a66c38a6869f9b46ce27d0fc715a:2:{i:0;s:9:\"_identity\";i:1;s:50:\"[1,\"61ae9170-58dd-44be-b042-750b5427f85c\",2592000]\";}'
    '_ga' => 'GA1.1.1284773022.1641954535'
    '_gid' => 'GA1.1.42649815.1641954535'
    'isAutoPlay' => '1'
    '_csrf' => '00fe4670248b51ea36dd0da246e0fad28123fa35ca461e00bf25c2ad2b87e7b6a:2:{i:0;s:5:\"_csrf\";i:1;s:32:\"OCZj4NaJvXiAS9dzgHo9NQrpTrsXm97I\";}'
    'myvideo-backend' => 'mbapbljjgvd4dshqefrsob0ru3'
    '_csrf-backend' => 'b8e73b07fe8e51646320c3e2b79f792c30a665f98a7cf41e32d1aa1824cee8e7a:2:{i:0;s:13:\"_csrf-backend\";i:1;s:32:\"4iWf7HvuE8EscSzesat4RZc8SAvrXkLo\";}'
    'myvideo-frontend' => 'beogp91fa36gl0ddtma1fch8qk'
    '_gat_gtag_UA_187937055_1' => '1'
    '_ga_LJBHP3PL7L' => 'GS1.1.1642141909.11.1.1642142871.0'
]

$_SESSION = [
    '__flash' => []
    'avatarImage' => 'http://183.182.100.152:8080/uploads/image1/thumb/2021/12/19/1639898348265/e277fd00f9ba_180_180.png'
    'themeUserId' => 1
    'is_mp4_only' => 0
    'is_pc' => 1
    'vod_profile_id' => 6
    'is_iOS' => 0
    'distributionId' => 0
    'backUrl' => false
    '__captcha/auth/captcha' => 's4xmu6d'
    '__captcha/auth/captchacount' => 1
    'msisdn' => '258872032111'
    'userId' => '74'
    'fullName' => 'User 44455'
    'isShowSuggest' => 0
    'cpId' => null
    'isRedirect' => false
    'is_write_log_device' => 0
    'lang' => 'en'
]

$_SERVER = [
    'REDIRECT_MIBDIRS' => '/xampp/php/extras/mibs'
    'REDIRECT_MYSQL_HOME' => '\\xampp\\mysql\\bin'
    'REDIRECT_OPENSSL_CONF' => '/xampp/apache/bin/openssl.cnf'
    'REDIRECT_PHP_PEAR_SYSCONF_DIR' => '\\xampp\\php'
    'REDIRECT_PHPRC' => '\\xampp\\php'
    'REDIRECT_TMP' => '\\xampp\\tmp'
    'REDIRECT_STATUS' => '200'
    'MIBDIRS' => '/xampp/php/extras/mibs'
    'MYSQL_HOME' => '\\xampp\\mysql\\bin'
    'OPENSSL_CONF' => '/xampp/apache/bin/openssl.cnf'
    'PHP_PEAR_SYSCONF_DIR' => '\\xampp\\php'
    'PHPRC' => '\\xampp\\php'
    'TMP' => '\\xampp\\tmp'
    'HTTP_HOST' => 'localhost:81'
    'HTTP_CONNECTION' => 'keep-alive'
    'HTTP_SEC_CH_UA' => '\" Not;A Brand\";v=\"99\", \"Google Chrome\";v=\"97\", \"Chromium\";v=\"97\"'
    'HTTP_SEC_CH_UA_MOBILE' => '?0'
    'HTTP_USER_AGENT' => 'Mozilla/5.0 (Windows NT 10.0; Win64; x64) AppleWebKit/537.36 (KHTML, like Gecko) Chrome/97.0.4692.71 Safari/537.36'
    'HTTP_SEC_CH_UA_PLATFORM' => '\"Windows\"'
    'HTTP_ACCEPT' => 'image/avif,image/webp,image/apng,image/svg+xml,image/*,*/*;q=0.8'
    'HTTP_SEC_FETCH_SITE' => 'same-origin'
    'HTTP_SEC_FETCH_MODE' => 'no-cors'
    'HTTP_SEC_FETCH_DEST' => 'image'
    'HTTP_REFERER' => 'http://localhost:81/video/2248890/video-cua-kenh-test-ngay-20?click_source=default&click_medium=video_owner'
    'HTTP_ACCEPT_ENCODING' => 'gzip, deflate, br'
    'HTTP_ACCEPT_LANGUAGE' => 'en-US,en;q=0.9'
    'HTTP_COOKIE' => 'language=d88ad7f0d1a7cb61248418846707b03b2cecc3ec9a3493e0a8e9f6176a969066a%3A2%3A%7Bi%3A0%3Bs%3A8%3A%22language%22%3Bi%3A1%3Bs%3A5%3A%22en-US%22%3B%7D; Phpstorm-65568aef=1243b413-1936-42ae-9bbc-67a1a69d164e; _identity=574360b07b1694b4067dd74392fcd43473138a66c38a6869f9b46ce27d0fc715a%3A2%3A%7Bi%3A0%3Bs%3A9%3A%22_identity%22%3Bi%3A1%3Bs%3A50%3A%22%5B1%2C%2261ae9170-58dd-44be-b042-750b5427f85c%22%2C2592000%5D%22%3B%7D; _ga=GA1.1.1284773022.1641954535; _gid=GA1.1.42649815.1641954535; isAutoPlay=1; _csrf=00fe4670248b51ea36dd0da246e0fad28123fa35ca461e00bf25c2ad2b87e7b6a%3A2%3A%7Bi%3A0%3Bs%3A5%3A%22_csrf%22%3Bi%3A1%3Bs%3A32%3A%22OCZj4NaJvXiAS9dzgHo9NQrpTrsXm97I%22%3B%7D; myvideo-backend=mbapbljjgvd4dshqefrsob0ru3; _csrf-backend=b8e73b07fe8e51646320c3e2b79f792c30a665f98a7cf41e32d1aa1824cee8e7a%3A2%3A%7Bi%3A0%3Bs%3A13%3A%22_csrf-backend%22%3Bi%3A1%3Bs%3A32%3A%224iWf7HvuE8EscSzesat4RZc8SAvrXkLo%22%3B%7D; myvideo-frontend=beogp91fa36gl0ddtma1fch8qk; _gat_gtag_UA_187937055_1=1; _ga_LJBHP3PL7L=GS1.1.1642141909.11.1.1642142871.0'
    'PATH' => 'C:\\Program Files (x86)\\Common Files\\NetSarang;C:\\Program Files (x86)\\Common Files\\Oracle\\Java\\javapath;C:\\Program Files (x86)\\NVIDIA Corporation\\PhysX\\Common;C:\\WINDOWS\\system32;C:\\WINDOWS;C:\\WINDOWS\\System32\\Wbem;C:\\WINDOWS\\System32\\WindowsPowerShell\\v1.0\\;C:\\WINDOWS\\System32\\OpenSSH\\;C:\\Program Files\\Microsoft SQL Server\\Client SDK\\ODBC\\170\\Tools\\Binn\\;C:\\Program Files (x86)\\Microsoft SQL Server\\150\\Tools\\Binn\\;C:\\Program Files\\Microsoft SQL Server\\150\\Tools\\Binn\\;C:\\Program Files\\Microsoft SQL Server\\150\\DTS\\Binn\\;C:\\Program Files\\TortoiseGit\\bin;C:\\Program Files\\Git\\cmd;C:\\Program Files\\dotnet\\;C:\\Program Files\\nodejs\\;C:\\Program Files (x86)\\dotnet\\;C:\\xampp\\php;C:\\composer;C:\\Program Files\\Redis\\;C:\\Users\\Asus R542\\AppData\\Local\\Microsoft\\WindowsApps;C:\\Program Files\\Azure Data Studio\\bin;C:\\Users\\Asus R542\\AppData\\Roaming\\npm;C:\\xampp\\php;C:\\Users\\Asus R542\\AppData\\Roaming\\Composer\\vendor\\bin'
    'SystemRoot' => 'C:\\WINDOWS'
    'COMSPEC' => 'C:\\WINDOWS\\system32\\cmd.exe'
    'PATHEXT' => '.COM;.EXE;.BAT;.CMD;.VBS;.VBE;.JS;.JSE;.WSF;.WSH;.MSC'
    'WINDIR' => 'C:\\WINDOWS'
    'SERVER_SIGNATURE' => '<address>Apache/2.4.29 (Win32) OpenSSL/1.0.2l PHP/7.1.11 Server at localhost Port 81</address>
'
    'SERVER_SOFTWARE' => 'Apache/2.4.29 (Win32) OpenSSL/1.0.2l PHP/7.1.11'
    'SERVER_NAME' => 'localhost'
    'SERVER_ADDR' => '::1'
    'SERVER_PORT' => '81'
    'REMOTE_ADDR' => '::1'
    'DOCUMENT_ROOT' => 'C:/xampp/htdocs/cms_wap/website/web'
    'REQUEST_SCHEME' => 'http'
    'CONTEXT_PREFIX' => ''
    'CONTEXT_DOCUMENT_ROOT' => 'C:/xampp/htdocs/cms_wap/website/web'
    'SERVER_ADMIN' => 'postmaster@localhost'
    'SCRIPT_FILENAME' => 'C:/xampp/htdocs/cms_wap/website/web/index.php'
    'REMOTE_PORT' => '55156'
    'REDIRECT_URL' => '/auth/captcha'
    'REDIRECT_QUERY_STRING' => 'v=61e11c9749d816.82416597'
    'GATEWAY_INTERFACE' => 'CGI/1.1'
    'SERVER_PROTOCOL' => 'HTTP/1.1'
    'REQUEST_METHOD' => 'GET'
    'QUERY_STRING' => 'v=61e11c9749d816.82416597'
    'REQUEST_URI' => '/auth/captcha?v=61e11c9749d816.82416597'
    'SCRIPT_NAME' => '/index.php'
    'PHP_SELF' => '/index.php'
    'REQUEST_TIME_FLOAT' => 1642142871.416
    'REQUEST_TIME' => 1642142871
]
2022-01-14 07:47:51 [::1][-][-][info][yii\web\Session::open] Session started
    in C:\xampp\htdocs\cms_wap\common\controllers\ApiController.php:121
    in C:\xampp\htdocs\cms_wap\website\controllers\VideoController.php:23
2022-01-14 07:47:51 [::1][-][-][info][yii\db\Connection::open] Opening DB connection: mysql:host=192.168.146.252:3307;dbname=meuclip
    in C:\xampp\htdocs\cms_wap\common\models\VtUserBase.php:59
    in C:\xampp\htdocs\cms_wap\common\controllers\ApiController.php:224
    in C:\xampp\htdocs\cms_wap\website\controllers\VideoController.php:23
2022-01-14 07:47:51 [::1][-][-][info][yii\db\Command::query] SELECT * FROM `vt_user` WHERE `id`='74'
    in C:\xampp\htdocs\cms_wap\common\models\VtUserBase.php:59
    in C:\xampp\htdocs\cms_wap\common\controllers\ApiController.php:224
    in C:\xampp\htdocs\cms_wap\website\controllers\VideoController.php:23
2022-01-14 07:47:51 [::1][-][-][info][yii\db\Command::query] SHOW FULL COLUMNS FROM `vt_user`
    in C:\xampp\htdocs\cms_wap\common\models\VtUserBase.php:59
    in C:\xampp\htdocs\cms_wap\common\controllers\ApiController.php:224
    in C:\xampp\htdocs\cms_wap\website\controllers\VideoController.php:23
2022-01-14 07:47:51 [::1][-][-][info][yii\db\Command::query] SELECT
    kcu.constraint_name,
    kcu.column_name,
    kcu.referenced_table_name,
    kcu.referenced_column_name
FROM information_schema.referential_constraints AS rc
JOIN information_schema.key_column_usage AS kcu ON
    (
        kcu.constraint_catalog = rc.constraint_catalog OR
        (kcu.constraint_catalog IS NULL AND rc.constraint_catalog IS NULL)
    ) AND
    kcu.constraint_schema = rc.constraint_schema AND
    kcu.constraint_name = rc.constraint_name
WHERE rc.constraint_schema = database() AND kcu.table_schema = database()
AND rc.table_name = 'vt_user' AND kcu.table_name = 'vt_user'
    in C:\xampp\htdocs\cms_wap\common\models\VtUserBase.php:59
    in C:\xampp\htdocs\cms_wap\common\controllers\ApiController.php:224
    in C:\xampp\htdocs\cms_wap\website\controllers\VideoController.php:23
2022-01-14 07:47:51 [::1][-][-][info][application] WAF |
    in C:\xampp\htdocs\cms_wap\common\libs\VtHelper.php:152
    in C:\xampp\htdocs\cms_wap\common\controllers\ApiController.php:236
    in C:\xampp\htdocs\cms_wap\website\controllers\VideoController.php:23
2022-01-14 07:47:51 [::1][-][-][info][yii\db\Command::query] SELECT `v`.* FROM `vt_video` `v` WHERE ((`v`.`id`='2248890') AND (`v`.`is_active`=1) AND (`v`.`is_no_copyright`=0)) AND (`v`.`status` IN (2, 1, 3))
    in C:\xampp\htdocs\cms_wap\common\models\VtVideoBase.php:151
    in C:\xampp\htdocs\cms_wap\common\modules\v2\controllers\VideoController.php:390
    in C:\xampp\htdocs\cms_wap\website\controllers\VideoController.php:259
2022-01-14 07:47:51 [::1][-][-][info][yii\db\Command::query] SELECT `v`.`id` FROM `vt_video` `v` WHERE ((`v`.`status`=2) AND (`v`.`is_active`=1) AND (`v`.`category_id`='1508')) AND (v.is_no_copyright=0) AND (v.published_time <= '2022-01-14 07:45:00') AND (v.published_time <= '2021-12-20 08:49:09') ORDER BY `v`.`published_time` DESC LIMIT 50
    in C:\xampp\htdocs\cms_wap\common\models\VtVideoBase.php:1694
    in C:\xampp\htdocs\cms_wap\common\modules\v2\controllers\VideoController.php:393
    in C:\xampp\htdocs\cms_wap\website\controllers\VideoController.php:259
2022-01-14 07:47:51 [::1][-][-][info][yii\db\Command::query] SELECT `v`.`id` FROM `vt_video` `v` WHERE ((`v`.`status`=2) AND (`v`.`is_active`=1) AND (`v`.`created_by`='74')) AND (v.is_no_copyright=0) AND (v.published_time <= '2022-01-14 07:45:00') AND (v.published_time <= '2021-12-20 08:49:09') ORDER BY `v`.`published_time` DESC LIMIT 50
    in C:\xampp\htdocs\cms_wap\common\models\VtVideoBase.php:1695
    in C:\xampp\htdocs\cms_wap\common\modules\v2\controllers\VideoController.php:393
    in C:\xampp\htdocs\cms_wap\website\controllers\VideoController.php:259
2022-01-14 07:47:51 [::1][-][-][info][yii\db\Command::query] SELECT `v`.*, `vc`.`user_id`, `vc`.`bucket` AS `user_bucket`, `vc`.`path` AS `user_path`, `vc`.`full_name` FROM `vt_video` `v` LEFT JOIN `vt_channel` `vc` ON vc.id=v.channel_id WHERE (`v`.`id` IN ('2248868', '2248876', '2248849', '2248839', '2248834', '2248833', '2248824', '2248808', '2248798', '2248796')) AND (v.type = 'VOD') AND (v.status = 2) AND (v.is_active = 1) AND (v.is_no_copyright=0) AND (v.published_time <= '2022-01-14 07:45:00') ORDER BY FIELD (v.id, 2248868,2248876,2248849,2248839,2248834,2248833,2248824,2248808,2248798,2248796)
    in C:\xampp\htdocs\cms_wap\common\modules\v2\libs\VideoObj.php:25
    in C:\xampp\htdocs\cms_wap\common\modules\v2\controllers\VideoController.php:393
    in C:\xampp\htdocs\cms_wap\website\controllers\VideoController.php:259
2022-01-14 07:47:51 [::1][-][-][info][yii\db\Command::query] SHOW FULL COLUMNS FROM `vt_video`
    in C:\xampp\htdocs\cms_wap\common\modules\v2\libs\VideoObj.php:25
    in C:\xampp\htdocs\cms_wap\common\modules\v2\controllers\VideoController.php:393
    in C:\xampp\htdocs\cms_wap\website\controllers\VideoController.php:259
2022-01-14 07:47:51 [::1][-][-][info][yii\db\Command::query] SELECT
    kcu.constraint_name,
    kcu.column_name,
    kcu.referenced_table_name,
    kcu.referenced_column_name
FROM information_schema.referential_constraints AS rc
JOIN information_schema.key_column_usage AS kcu ON
    (
        kcu.constraint_catalog = rc.constraint_catalog OR
        (kcu.constraint_catalog IS NULL AND rc.constraint_catalog IS NULL)
    ) AND
    kcu.constraint_schema = rc.constraint_schema AND
    kcu.constraint_name = rc.constraint_name
WHERE rc.constraint_schema = database() AND kcu.table_schema = database()
AND rc.table_name = 'vt_video' AND kcu.table_name = 'vt_video'
    in C:\xampp\htdocs\cms_wap\common\modules\v2\libs\VideoObj.php:25
    in C:\xampp\htdocs\cms_wap\common\modules\v2\controllers\VideoController.php:393
    in C:\xampp\htdocs\cms_wap\website\controllers\VideoController.php:259
2022-01-14 07:47:51 [::1][-][-][info][application] Response time of /video/related-video-box?device_id=&id=2248890&channel_id=1040&channel_name=k%C3%AAnh+test+ng%C3%A0y++20&video_name=video+cua+kenh+test+ngay+20&tag_name=&category_id=1508&category_name=ca+nhac+tre&category_parent_id=: 125 ms
    in C:\xampp\htdocs\cms_wap\common\controllers\ApiController.php:353
2022-01-14 07:47:51 [::1][-][-][info][application] $_GET = [
    'device_id' => ''
    'id' => '2248890'
    'channel_id' => '1040'
    'channel_name' => 'kênh test ngày  20'
    'video_name' => 'video cua kenh test ngay 20'
    'tag_name' => ''
    'category_id' => '1508'
    'category_name' => 'ca nhac tre'
    'category_parent_id' => ''
]

$_POST = []

$_FILES = []

$_COOKIE = [
    'language' => 'd88ad7f0d1a7cb61248418846707b03b2cecc3ec9a3493e0a8e9f6176a969066a:2:{i:0;s:8:\"language\";i:1;s:5:\"en-US\";}'
    'Phpstorm-65568aef' => '1243b413-1936-42ae-9bbc-67a1a69d164e'
    '_identity' => '574360b07b1694b4067dd74392fcd43473138a66c38a6869f9b46ce27d0fc715a:2:{i:0;s:9:\"_identity\";i:1;s:50:\"[1,\"61ae9170-58dd-44be-b042-750b5427f85c\",2592000]\";}'
    '_ga' => 'GA1.1.1284773022.1641954535'
    '_gid' => 'GA1.1.42649815.1641954535'
    'isAutoPlay' => '1'
    '_csrf' => '00fe4670248b51ea36dd0da246e0fad28123fa35ca461e00bf25c2ad2b87e7b6a:2:{i:0;s:5:\"_csrf\";i:1;s:32:\"OCZj4NaJvXiAS9dzgHo9NQrpTrsXm97I\";}'
    'myvideo-backend' => 'mbapbljjgvd4dshqefrsob0ru3'
    '_csrf-backend' => 'b8e73b07fe8e51646320c3e2b79f792c30a665f98a7cf41e32d1aa1824cee8e7a:2:{i:0;s:13:\"_csrf-backend\";i:1;s:32:\"4iWf7HvuE8EscSzesat4RZc8SAvrXkLo\";}'
    'myvideo-frontend' => 'beogp91fa36gl0ddtma1fch8qk'
    '_gat_gtag_UA_187937055_1' => '1'
    '_ga_LJBHP3PL7L' => 'GS1.1.1642141909.11.1.1642142871.0'
]

$_SESSION = [
    '__flash' => []
    'avatarImage' => 'http://183.182.100.152:8080/uploads/image1/thumb/2021/12/19/1639898348265/e277fd00f9ba_180_180.png'
    'themeUserId' => 1
    'is_mp4_only' => 0
    'is_pc' => 1
    'vod_profile_id' => 6
    'is_iOS' => 0
    'distributionId' => 0
    'backUrl' => false
    '__captcha/auth/captcha' => 's4xmu6d'
    '__captcha/auth/captchacount' => 1
    'msisdn' => '258872032111'
    'userId' => '74'
    'fullName' => 'User 44455'
    'isShowSuggest' => 0
    'cpId' => null
    'isRedirect' => false
    'is_write_log_device' => 0
    'lang' => 'en'
]

$_SERVER = [
    'REDIRECT_MIBDIRS' => '/xampp/php/extras/mibs'
    'REDIRECT_MYSQL_HOME' => '\\xampp\\mysql\\bin'
    'REDIRECT_OPENSSL_CONF' => '/xampp/apache/bin/openssl.cnf'
    'REDIRECT_PHP_PEAR_SYSCONF_DIR' => '\\xampp\\php'
    'REDIRECT_PHPRC' => '\\xampp\\php'
    'REDIRECT_TMP' => '\\xampp\\tmp'
    'REDIRECT_STATUS' => '200'
    'MIBDIRS' => '/xampp/php/extras/mibs'
    'MYSQL_HOME' => '\\xampp\\mysql\\bin'
    'OPENSSL_CONF' => '/xampp/apache/bin/openssl.cnf'
    'PHP_PEAR_SYSCONF_DIR' => '\\xampp\\php'
    'PHPRC' => '\\xampp\\php'
    'TMP' => '\\xampp\\tmp'
    'HTTP_HOST' => 'localhost:81'
    'HTTP_CONNECTION' => 'keep-alive'
    'HTTP_SEC_CH_UA' => '\" Not;A Brand\";v=\"99\", \"Google Chrome\";v=\"97\", \"Chromium\";v=\"97\"'
    'HTTP_ACCEPT' => '*/*'
    'HTTP_X_REQUESTED_WITH' => 'XMLHttpRequest'
    'HTTP_SEC_CH_UA_MOBILE' => '?0'
    'HTTP_USER_AGENT' => 'Mozilla/5.0 (Windows NT 10.0; Win64; x64) AppleWebKit/537.36 (KHTML, like Gecko) Chrome/97.0.4692.71 Safari/537.36'
    'HTTP_SEC_CH_UA_PLATFORM' => '\"Windows\"'
    'HTTP_SEC_FETCH_SITE' => 'same-origin'
    'HTTP_SEC_FETCH_MODE' => 'cors'
    'HTTP_SEC_FETCH_DEST' => 'empty'
    'HTTP_REFERER' => 'http://localhost:81/video/2248890/video-cua-kenh-test-ngay-20?click_source=default&click_medium=video_owner'
    'HTTP_ACCEPT_ENCODING' => 'gzip, deflate, br'
    'HTTP_ACCEPT_LANGUAGE' => 'en-US,en;q=0.9'
    'HTTP_COOKIE' => 'language=d88ad7f0d1a7cb61248418846707b03b2cecc3ec9a3493e0a8e9f6176a969066a%3A2%3A%7Bi%3A0%3Bs%3A8%3A%22language%22%3Bi%3A1%3Bs%3A5%3A%22en-US%22%3B%7D; Phpstorm-65568aef=1243b413-1936-42ae-9bbc-67a1a69d164e; _identity=574360b07b1694b4067dd74392fcd43473138a66c38a6869f9b46ce27d0fc715a%3A2%3A%7Bi%3A0%3Bs%3A9%3A%22_identity%22%3Bi%3A1%3Bs%3A50%3A%22%5B1%2C%2261ae9170-58dd-44be-b042-750b5427f85c%22%2C2592000%5D%22%3B%7D; _ga=GA1.1.1284773022.1641954535; _gid=GA1.1.42649815.1641954535; isAutoPlay=1; _csrf=00fe4670248b51ea36dd0da246e0fad28123fa35ca461e00bf25c2ad2b87e7b6a%3A2%3A%7Bi%3A0%3Bs%3A5%3A%22_csrf%22%3Bi%3A1%3Bs%3A32%3A%22OCZj4NaJvXiAS9dzgHo9NQrpTrsXm97I%22%3B%7D; myvideo-backend=mbapbljjgvd4dshqefrsob0ru3; _csrf-backend=b8e73b07fe8e51646320c3e2b79f792c30a665f98a7cf41e32d1aa1824cee8e7a%3A2%3A%7Bi%3A0%3Bs%3A13%3A%22_csrf-backend%22%3Bi%3A1%3Bs%3A32%3A%224iWf7HvuE8EscSzesat4RZc8SAvrXkLo%22%3B%7D; myvideo-frontend=beogp91fa36gl0ddtma1fch8qk; _gat_gtag_UA_187937055_1=1; _ga_LJBHP3PL7L=GS1.1.1642141909.11.1.1642142871.0'
    'PATH' => 'C:\\Program Files (x86)\\Common Files\\NetSarang;C:\\Program Files (x86)\\Common Files\\Oracle\\Java\\javapath;C:\\Program Files (x86)\\NVIDIA Corporation\\PhysX\\Common;C:\\WINDOWS\\system32;C:\\WINDOWS;C:\\WINDOWS\\System32\\Wbem;C:\\WINDOWS\\System32\\WindowsPowerShell\\v1.0\\;C:\\WINDOWS\\System32\\OpenSSH\\;C:\\Program Files\\Microsoft SQL Server\\Client SDK\\ODBC\\170\\Tools\\Binn\\;C:\\Program Files (x86)\\Microsoft SQL Server\\150\\Tools\\Binn\\;C:\\Program Files\\Microsoft SQL Server\\150\\Tools\\Binn\\;C:\\Program Files\\Microsoft SQL Server\\150\\DTS\\Binn\\;C:\\Program Files\\TortoiseGit\\bin;C:\\Program Files\\Git\\cmd;C:\\Program Files\\dotnet\\;C:\\Program Files\\nodejs\\;C:\\Program Files (x86)\\dotnet\\;C:\\xampp\\php;C:\\composer;C:\\Program Files\\Redis\\;C:\\Users\\Asus R542\\AppData\\Local\\Microsoft\\WindowsApps;C:\\Program Files\\Azure Data Studio\\bin;C:\\Users\\Asus R542\\AppData\\Roaming\\npm;C:\\xampp\\php;C:\\Users\\Asus R542\\AppData\\Roaming\\Composer\\vendor\\bin'
    'SystemRoot' => 'C:\\WINDOWS'
    'COMSPEC' => 'C:\\WINDOWS\\system32\\cmd.exe'
    'PATHEXT' => '.COM;.EXE;.BAT;.CMD;.VBS;.VBE;.JS;.JSE;.WSF;.WSH;.MSC'
    'WINDIR' => 'C:\\WINDOWS'
    'SERVER_SIGNATURE' => '<address>Apache/2.4.29 (Win32) OpenSSL/1.0.2l PHP/7.1.11 Server at localhost Port 81</address>
'
    'SERVER_SOFTWARE' => 'Apache/2.4.29 (Win32) OpenSSL/1.0.2l PHP/7.1.11'
    'SERVER_NAME' => 'localhost'
    'SERVER_ADDR' => '::1'
    'SERVER_PORT' => '81'
    'REMOTE_ADDR' => '::1'
    'DOCUMENT_ROOT' => 'C:/xampp/htdocs/cms_wap/website/web'
    'REQUEST_SCHEME' => 'http'
    'CONTEXT_PREFIX' => ''
    'CONTEXT_DOCUMENT_ROOT' => 'C:/xampp/htdocs/cms_wap/website/web'
    'SERVER_ADMIN' => 'postmaster@localhost'
    'SCRIPT_FILENAME' => 'C:/xampp/htdocs/cms_wap/website/web/index.php'
    'REMOTE_PORT' => '55171'
    'REDIRECT_URL' => '/video/related-video-box'
    'REDIRECT_QUERY_STRING' => 'device_id=&id=2248890&channel_id=1040&channel_name=k%C3%AAnh+test+ng%C3%A0y++20&video_name=video+cua+kenh+test+ngay+20&tag_name=&category_id=1508&category_name=ca+nhac+tre&category_parent_id='
    'GATEWAY_INTERFACE' => 'CGI/1.1'
    'SERVER_PROTOCOL' => 'HTTP/1.1'
    'REQUEST_METHOD' => 'GET'
    'QUERY_STRING' => 'device_id=&id=2248890&channel_id=1040&channel_name=k%C3%AAnh+test+ng%C3%A0y++20&video_name=video+cua+kenh+test+ngay+20&tag_name=&category_id=1508&category_name=ca+nhac+tre&category_parent_id='
    'REQUEST_URI' => '/video/related-video-box?device_id=&id=2248890&channel_id=1040&channel_name=k%C3%AAnh+test+ng%C3%A0y++20&video_name=video+cua+kenh+test+ngay+20&tag_name=&category_id=1508&category_name=ca+nhac+tre&category_parent_id='
    'SCRIPT_NAME' => '/index.php'
    'PHP_SELF' => '/index.php'
    'REQUEST_TIME_FLOAT' => 1642142871.604
    'REQUEST_TIME' => 1642142871
]
2022-01-14 07:47:51 [::1][-][beogp91fa36gl0ddtma1fch8qk][info][yii\web\Session::open] Session started
    in C:\xampp\htdocs\cms_wap\common\controllers\ApiController.php:121
    in C:\xampp\htdocs\cms_wap\website\controllers\KpiController.php:16
2022-01-14 07:47:51 [::1][-][beogp91fa36gl0ddtma1fch8qk][info][yii\db\Connection::open] Opening DB connection: mysql:host=192.168.146.252:3307;dbname=meuclip
    in C:\xampp\htdocs\cms_wap\common\models\VtUserBase.php:59
    in C:\xampp\htdocs\cms_wap\common\controllers\ApiController.php:224
    in C:\xampp\htdocs\cms_wap\website\controllers\KpiController.php:16
2022-01-14 07:47:51 [::1][-][beogp91fa36gl0ddtma1fch8qk][info][yii\db\Command::query] SELECT * FROM `vt_user` WHERE `id`='74'
    in C:\xampp\htdocs\cms_wap\common\models\VtUserBase.php:59
    in C:\xampp\htdocs\cms_wap\common\controllers\ApiController.php:224
    in C:\xampp\htdocs\cms_wap\website\controllers\KpiController.php:16
2022-01-14 07:47:51 [::1][-][beogp91fa36gl0ddtma1fch8qk][info][yii\db\Command::query] SHOW FULL COLUMNS FROM `vt_user`
    in C:\xampp\htdocs\cms_wap\common\models\VtUserBase.php:59
    in C:\xampp\htdocs\cms_wap\common\controllers\ApiController.php:224
    in C:\xampp\htdocs\cms_wap\website\controllers\KpiController.php:16
2022-01-14 07:47:51 [::1][-][beogp91fa36gl0ddtma1fch8qk][info][yii\db\Command::query] SELECT
    kcu.constraint_name,
    kcu.column_name,
    kcu.referenced_table_name,
    kcu.referenced_column_name
FROM information_schema.referential_constraints AS rc
JOIN information_schema.key_column_usage AS kcu ON
    (
        kcu.constraint_catalog = rc.constraint_catalog OR
        (kcu.constraint_catalog IS NULL AND rc.constraint_catalog IS NULL)
    ) AND
    kcu.constraint_schema = rc.constraint_schema AND
    kcu.constraint_name = rc.constraint_name
WHERE rc.constraint_schema = database() AND kcu.table_schema = database()
AND rc.table_name = 'vt_user' AND kcu.table_name = 'vt_user'
    in C:\xampp\htdocs\cms_wap\common\models\VtUserBase.php:59
    in C:\xampp\htdocs\cms_wap\common\controllers\ApiController.php:224
    in C:\xampp\htdocs\cms_wap\website\controllers\KpiController.php:16
2022-01-14 07:47:51 [::1][-][beogp91fa36gl0ddtma1fch8qk][info][application] WAF |
    in C:\xampp\htdocs\cms_wap\common\libs\VtHelper.php:152
    in C:\xampp\htdocs\cms_wap\common\controllers\ApiController.php:236
    in C:\xampp\htdocs\cms_wap\website\controllers\KpiController.php:16
2022-01-14 07:47:51 [::1][-][beogp91fa36gl0ddtma1fch8qk][info][yii\db\Command::query] SHOW FULL COLUMNS FROM `vt_video`
    in C:\xampp\htdocs\cms_wap\common\modules\v2\controllers\KpiController.php:24
    in C:\xampp\htdocs\cms_wap\website\controllers\KpiController.php:32
2022-01-14 07:47:51 [::1][-][beogp91fa36gl0ddtma1fch8qk][info][yii\db\Command::query] SELECT
    kcu.constraint_name,
    kcu.column_name,
    kcu.referenced_table_name,
    kcu.referenced_column_name
FROM information_schema.referential_constraints AS rc
JOIN information_schema.key_column_usage AS kcu ON
    (
        kcu.constraint_catalog = rc.constraint_catalog OR
        (kcu.constraint_catalog IS NULL AND rc.constraint_catalog IS NULL)
    ) AND
    kcu.constraint_schema = rc.constraint_schema AND
    kcu.constraint_name = rc.constraint_name
WHERE rc.constraint_schema = database() AND kcu.table_schema = database()
AND rc.table_name = 'vt_video' AND kcu.table_name = 'vt_video'
    in C:\xampp\htdocs\cms_wap\common\modules\v2\controllers\KpiController.php:24
    in C:\xampp\htdocs\cms_wap\website\controllers\KpiController.php:32
2022-01-14 07:47:51 [::1][-][beogp91fa36gl0ddtma1fch8qk][info][yii\db\Command::query] SELECT * FROM `vt_video` WHERE `id`='2248890'
    in C:\xampp\htdocs\cms_wap\common\modules\v2\controllers\KpiController.php:24
    in C:\xampp\htdocs\cms_wap\website\controllers\KpiController.php:32
2022-01-14 07:47:51 [::1][-][beogp91fa36gl0ddtma1fch8qk][info][yii\db\Command::query] SELECT * FROM `vt_sub` WHERE (`msisdn`='258872032111') AND (`status`=1)
    in C:\xampp\htdocs\cms_wap\common\models\VtSubBase.php:22
    in C:\xampp\htdocs\cms_wap\common\modules\v2\controllers\KpiController.php:25
    in C:\xampp\htdocs\cms_wap\website\controllers\KpiController.php:32
2022-01-14 07:47:51 [::1][-][beogp91fa36gl0ddtma1fch8qk][info][application] WAF |
    in C:\xampp\htdocs\cms_wap\common\libs\VtHelper.php:152
    in C:\xampp\htdocs\cms_wap\common\modules\v2\controllers\KpiController.php:41
    in C:\xampp\htdocs\cms_wap\website\controllers\KpiController.php:32
2022-01-14 07:47:51 [::1][-][beogp91fa36gl0ddtma1fch8qk][info][yii\mongodb\Command::executeBatch] mongo_myclip_moz.play_log.bulkWrite([{"type":"insert","document":{"video_id":2248890,"play_url":"http:\/\/183.182.100.135\/uploads\/image1\/thumb\/2021\/12\/20\/1639990171920\/_PAJhpf6inmTAV1z2v8y6BCdsbUwhCrnpSMyI--2fqYPIh6fEQeMiWeKLxYK-htvDvqumPeIWq4P5dwQ5Nu9C39Xzufxvd0QOiFeX-JJr+Dm=_.m3u8","channel_id":1040,"created_by":74,"category_id":1508,"is_sub":1,"duration_watching":0,"pause_times":0,"seek_times":0,"wait_times":0,"duration_buffer":0,"current_time":0,"ip":"::1","user_id":"74","msisdn":"258872032111","os_version":null,"os_type":"WEBSITE","user_agent":"Mozilla\/5.0 (Windows NT 10.0; Win64; x64) AppleWebKit\/537.36 (KHTML, like Gecko) Chrome\/97.0.4692.71 Safari\/537.36","created_at":"2022-01-14 07:47:51","updated_at":"2022-01-14 07:47:51","init_time":-1,"bandwidth_avg":0,"buffer_times_over_3s":0}}])
    in C:\xampp\htdocs\cms_wap\common\modules\v2\controllers\KpiController.php:51
    in C:\xampp\htdocs\cms_wap\website\controllers\KpiController.php:32
2022-01-14 07:47:51 [::1][-][beogp91fa36gl0ddtma1fch8qk][info][application] $_GET = [
    'video_id' => '2248890'
    'play_url' => 'http://183.182.100.135/uploads/image1/thumb/2021/12/20/1639990171920/_PAJhpf6inmTAV1z2v8y6BCdsbUwhCrnpSMyI--2fqYPIh6fEQeMiWeKLxYK-htvDvqumPeIWq4P5dwQ5Nu9C39Xzufxvd0QOiFeX-JJr+Dm=_.m3u8'
    'os_type' => 'WEBSITE'
    '_csrf' => 'UTw0wBbpxuhbg9nvxs0zcuF3E9KgJv22GphN4ZGrvwYef26qIqenoi3bsK6V9FcIhj986-53j8ZO6j65_JKITw=='
]

$_POST = []

$_FILES = []

$_COOKIE = [
    'language' => 'd88ad7f0d1a7cb61248418846707b03b2cecc3ec9a3493e0a8e9f6176a969066a:2:{i:0;s:8:\"language\";i:1;s:5:\"en-US\";}'
    'Phpstorm-65568aef' => '1243b413-1936-42ae-9bbc-67a1a69d164e'
    '_identity' => '574360b07b1694b4067dd74392fcd43473138a66c38a6869f9b46ce27d0fc715a:2:{i:0;s:9:\"_identity\";i:1;s:50:\"[1,\"61ae9170-58dd-44be-b042-750b5427f85c\",2592000]\";}'
    '_ga' => 'GA1.1.1284773022.1641954535'
    '_gid' => 'GA1.1.42649815.1641954535'
    'isAutoPlay' => '1'
    '_csrf' => '00fe4670248b51ea36dd0da246e0fad28123fa35ca461e00bf25c2ad2b87e7b6a:2:{i:0;s:5:\"_csrf\";i:1;s:32:\"OCZj4NaJvXiAS9dzgHo9NQrpTrsXm97I\";}'
    'myvideo-backend' => 'mbapbljjgvd4dshqefrsob0ru3'
    '_csrf-backend' => 'b8e73b07fe8e51646320c3e2b79f792c30a665f98a7cf41e32d1aa1824cee8e7a:2:{i:0;s:13:\"_csrf-backend\";i:1;s:32:\"4iWf7HvuE8EscSzesat4RZc8SAvrXkLo\";}'
    'myvideo-frontend' => 'beogp91fa36gl0ddtma1fch8qk'
    '_gat_gtag_UA_187937055_1' => '1'
    '_ga_LJBHP3PL7L' => 'GS1.1.1642141909.11.1.1642142871.0'
]

$_SESSION = [
    '__flash' => []
    'avatarImage' => 'http://183.182.100.152:8080/uploads/image1/thumb/2021/12/19/1639898348265/e277fd00f9ba_180_180.png'
    'themeUserId' => 1
    'is_mp4_only' => 0
    'is_pc' => 1
    'vod_profile_id' => 6
    'is_iOS' => 0
    'distributionId' => 0
    'backUrl' => false
    '__captcha/auth/captcha' => 's4xmu6d'
    '__captcha/auth/captchacount' => 1
    'msisdn' => '258872032111'
    'userId' => '74'
    'fullName' => 'User 44455'
    'isShowSuggest' => 0
    'cpId' => null
    'isRedirect' => false
    'is_write_log_device' => 0
    'lang' => 'en'
]

$_SERVER = [
    'REDIRECT_MIBDIRS' => '/xampp/php/extras/mibs'
    'REDIRECT_MYSQL_HOME' => '\\xampp\\mysql\\bin'
    'REDIRECT_OPENSSL_CONF' => '/xampp/apache/bin/openssl.cnf'
    'REDIRECT_PHP_PEAR_SYSCONF_DIR' => '\\xampp\\php'
    'REDIRECT_PHPRC' => '\\xampp\\php'
    'REDIRECT_TMP' => '\\xampp\\tmp'
    'REDIRECT_STATUS' => '200'
    'MIBDIRS' => '/xampp/php/extras/mibs'
    'MYSQL_HOME' => '\\xampp\\mysql\\bin'
    'OPENSSL_CONF' => '/xampp/apache/bin/openssl.cnf'
    'PHP_PEAR_SYSCONF_DIR' => '\\xampp\\php'
    'PHPRC' => '\\xampp\\php'
    'TMP' => '\\xampp\\tmp'
    'HTTP_HOST' => 'localhost:81'
    'HTTP_CONNECTION' => 'keep-alive'
    'HTTP_SEC_CH_UA' => '\" Not;A Brand\";v=\"99\", \"Google Chrome\";v=\"97\", \"Chromium\";v=\"97\"'
    'HTTP_ACCEPT' => '*/*'
    'HTTP_X_REQUESTED_WITH' => 'XMLHttpRequest'
    'HTTP_SEC_CH_UA_MOBILE' => '?0'
    'HTTP_USER_AGENT' => 'Mozilla/5.0 (Windows NT 10.0; Win64; x64) AppleWebKit/537.36 (KHTML, like Gecko) Chrome/97.0.4692.71 Safari/537.36'
    'HTTP_SEC_CH_UA_PLATFORM' => '\"Windows\"'
    'HTTP_SEC_FETCH_SITE' => 'same-origin'
    'HTTP_SEC_FETCH_MODE' => 'cors'
    'HTTP_SEC_FETCH_DEST' => 'empty'
    'HTTP_REFERER' => 'http://localhost:81/video/2248890/video-cua-kenh-test-ngay-20?click_source=default&click_medium=video_owner'
    'HTTP_ACCEPT_ENCODING' => 'gzip, deflate, br'
    'HTTP_ACCEPT_LANGUAGE' => 'en-US,en;q=0.9'
    'HTTP_COOKIE' => 'language=d88ad7f0d1a7cb61248418846707b03b2cecc3ec9a3493e0a8e9f6176a969066a%3A2%3A%7Bi%3A0%3Bs%3A8%3A%22language%22%3Bi%3A1%3Bs%3A5%3A%22en-US%22%3B%7D; Phpstorm-65568aef=1243b413-1936-42ae-9bbc-67a1a69d164e; _identity=574360b07b1694b4067dd74392fcd43473138a66c38a6869f9b46ce27d0fc715a%3A2%3A%7Bi%3A0%3Bs%3A9%3A%22_identity%22%3Bi%3A1%3Bs%3A50%3A%22%5B1%2C%2261ae9170-58dd-44be-b042-750b5427f85c%22%2C2592000%5D%22%3B%7D; _ga=GA1.1.1284773022.1641954535; _gid=GA1.1.42649815.1641954535; isAutoPlay=1; _csrf=00fe4670248b51ea36dd0da246e0fad28123fa35ca461e00bf25c2ad2b87e7b6a%3A2%3A%7Bi%3A0%3Bs%3A5%3A%22_csrf%22%3Bi%3A1%3Bs%3A32%3A%22OCZj4NaJvXiAS9dzgHo9NQrpTrsXm97I%22%3B%7D; myvideo-backend=mbapbljjgvd4dshqefrsob0ru3; _csrf-backend=b8e73b07fe8e51646320c3e2b79f792c30a665f98a7cf41e32d1aa1824cee8e7a%3A2%3A%7Bi%3A0%3Bs%3A13%3A%22_csrf-backend%22%3Bi%3A1%3Bs%3A32%3A%224iWf7HvuE8EscSzesat4RZc8SAvrXkLo%22%3B%7D; myvideo-frontend=beogp91fa36gl0ddtma1fch8qk; _gat_gtag_UA_187937055_1=1; _ga_LJBHP3PL7L=GS1.1.1642141909.11.1.1642142871.0'
    'PATH' => 'C:\\Program Files (x86)\\Common Files\\NetSarang;C:\\Program Files (x86)\\Common Files\\Oracle\\Java\\javapath;C:\\Program Files (x86)\\NVIDIA Corporation\\PhysX\\Common;C:\\WINDOWS\\system32;C:\\WINDOWS;C:\\WINDOWS\\System32\\Wbem;C:\\WINDOWS\\System32\\WindowsPowerShell\\v1.0\\;C:\\WINDOWS\\System32\\OpenSSH\\;C:\\Program Files\\Microsoft SQL Server\\Client SDK\\ODBC\\170\\Tools\\Binn\\;C:\\Program Files (x86)\\Microsoft SQL Server\\150\\Tools\\Binn\\;C:\\Program Files\\Microsoft SQL Server\\150\\Tools\\Binn\\;C:\\Program Files\\Microsoft SQL Server\\150\\DTS\\Binn\\;C:\\Program Files\\TortoiseGit\\bin;C:\\Program Files\\Git\\cmd;C:\\Program Files\\dotnet\\;C:\\Program Files\\nodejs\\;C:\\Program Files (x86)\\dotnet\\;C:\\xampp\\php;C:\\composer;C:\\Program Files\\Redis\\;C:\\Users\\Asus R542\\AppData\\Local\\Microsoft\\WindowsApps;C:\\Program Files\\Azure Data Studio\\bin;C:\\Users\\Asus R542\\AppData\\Roaming\\npm;C:\\xampp\\php;C:\\Users\\Asus R542\\AppData\\Roaming\\Composer\\vendor\\bin'
    'SystemRoot' => 'C:\\WINDOWS'
    'COMSPEC' => 'C:\\WINDOWS\\system32\\cmd.exe'
    'PATHEXT' => '.COM;.EXE;.BAT;.CMD;.VBS;.VBE;.JS;.JSE;.WSF;.WSH;.MSC'
    'WINDIR' => 'C:\\WINDOWS'
    'SERVER_SIGNATURE' => '<address>Apache/2.4.29 (Win32) OpenSSL/1.0.2l PHP/7.1.11 Server at localhost Port 81</address>
'
    'SERVER_SOFTWARE' => 'Apache/2.4.29 (Win32) OpenSSL/1.0.2l PHP/7.1.11'
    'SERVER_NAME' => 'localhost'
    'SERVER_ADDR' => '::1'
    'SERVER_PORT' => '81'
    'REMOTE_ADDR' => '::1'
    'DOCUMENT_ROOT' => 'C:/xampp/htdocs/cms_wap/website/web'
    'REQUEST_SCHEME' => 'http'
    'CONTEXT_PREFIX' => ''
    'CONTEXT_DOCUMENT_ROOT' => 'C:/xampp/htdocs/cms_wap/website/web'
    'SERVER_ADMIN' => 'postmaster@localhost'
    'SCRIPT_FILENAME' => 'C:/xampp/htdocs/cms_wap/website/web/index.php'
    'REMOTE_PORT' => '55173'
    'REDIRECT_URL' => '/kpi/init'
    'REDIRECT_QUERY_STRING' => 'video_id=2248890&play_url=http%3A%2F%2F183.182.100.135%2Fuploads%2Fimage1%2Fthumb%2F2021%2F12%2F20%2F1639990171920%2F_PAJhpf6inmTAV1z2v8y6BCdsbUwhCrnpSMyI--2fqYPIh6fEQeMiWeKLxYK-htvDvqumPeIWq4P5dwQ5Nu9C39Xzufxvd0QOiFeX-JJr%2BDm%3D_.m3u8&os_type=WEBSITE&_csrf=UTw0wBbpxuhbg9nvxs0zcuF3E9KgJv22GphN4ZGrvwYef26qIqenoi3bsK6V9FcIhj986-53j8ZO6j65_JKITw%3D%3D'
    'GATEWAY_INTERFACE' => 'CGI/1.1'
    'SERVER_PROTOCOL' => 'HTTP/1.1'
    'REQUEST_METHOD' => 'GET'
    'QUERY_STRING' => 'video_id=2248890&play_url=http%3A%2F%2F183.182.100.135%2Fuploads%2Fimage1%2Fthumb%2F2021%2F12%2F20%2F1639990171920%2F_PAJhpf6inmTAV1z2v8y6BCdsbUwhCrnpSMyI--2fqYPIh6fEQeMiWeKLxYK-htvDvqumPeIWq4P5dwQ5Nu9C39Xzufxvd0QOiFeX-JJr%2BDm%3D_.m3u8&os_type=WEBSITE&_csrf=UTw0wBbpxuhbg9nvxs0zcuF3E9KgJv22GphN4ZGrvwYef26qIqenoi3bsK6V9FcIhj986-53j8ZO6j65_JKITw%3D%3D'
    'REQUEST_URI' => '/kpi/init?video_id=2248890&play_url=http%3A%2F%2F183.182.100.135%2Fuploads%2Fimage1%2Fthumb%2F2021%2F12%2F20%2F1639990171920%2F_PAJhpf6inmTAV1z2v8y6BCdsbUwhCrnpSMyI--2fqYPIh6fEQeMiWeKLxYK-htvDvqumPeIWq4P5dwQ5Nu9C39Xzufxvd0QOiFeX-JJr%2BDm%3D_.m3u8&os_type=WEBSITE&_csrf=UTw0wBbpxuhbg9nvxs0zcuF3E9KgJv22GphN4ZGrvwYef26qIqenoi3bsK6V9FcIhj986-53j8ZO6j65_JKITw%3D%3D'
    'SCRIPT_NAME' => '/index.php'
    'PHP_SELF' => '/index.php'
    'REQUEST_TIME_FLOAT' => 1642142871.634
    'REQUEST_TIME' => 1642142871
]
2022-01-14 07:47:51 [::1][-][-][info][yii\web\Session::open] Session started
    in C:\xampp\htdocs\cms_wap\common\controllers\ApiController.php:121
    in C:\xampp\htdocs\cms_wap\website\controllers\DefaultController.php:51
2022-01-14 07:47:51 [::1][-][-][info][yii\db\Connection::open] Opening DB connection: mysql:host=192.168.146.252:3307;dbname=meuclip
    in C:\xampp\htdocs\cms_wap\common\models\VtUserBase.php:59
    in C:\xampp\htdocs\cms_wap\common\controllers\ApiController.php:224
    in C:\xampp\htdocs\cms_wap\website\controllers\DefaultController.php:51
2022-01-14 07:47:51 [::1][-][-][info][yii\db\Command::query] SELECT * FROM `vt_user` WHERE `id`='74'
    in C:\xampp\htdocs\cms_wap\common\models\VtUserBase.php:59
    in C:\xampp\htdocs\cms_wap\common\controllers\ApiController.php:224
    in C:\xampp\htdocs\cms_wap\website\controllers\DefaultController.php:51
2022-01-14 07:47:51 [::1][-][-][info][yii\db\Command::query] SHOW FULL COLUMNS FROM `vt_user`
    in C:\xampp\htdocs\cms_wap\common\models\VtUserBase.php:59
    in C:\xampp\htdocs\cms_wap\common\controllers\ApiController.php:224
    in C:\xampp\htdocs\cms_wap\website\controllers\DefaultController.php:51
2022-01-14 07:47:51 [::1][-][-][info][yii\db\Command::query] SELECT
    kcu.constraint_name,
    kcu.column_name,
    kcu.referenced_table_name,
    kcu.referenced_column_name
FROM information_schema.referential_constraints AS rc
JOIN information_schema.key_column_usage AS kcu ON
    (
        kcu.constraint_catalog = rc.constraint_catalog OR
        (kcu.constraint_catalog IS NULL AND rc.constraint_catalog IS NULL)
    ) AND
    kcu.constraint_schema = rc.constraint_schema AND
    kcu.constraint_name = rc.constraint_name
WHERE rc.constraint_schema = database() AND kcu.table_schema = database()
AND rc.table_name = 'vt_user' AND kcu.table_name = 'vt_user'
    in C:\xampp\htdocs\cms_wap\common\models\VtUserBase.php:59
    in C:\xampp\htdocs\cms_wap\common\controllers\ApiController.php:224
    in C:\xampp\htdocs\cms_wap\website\controllers\DefaultController.php:51
2022-01-14 07:47:51 [::1][-][-][info][application] WAF |
    in C:\xampp\htdocs\cms_wap\common\libs\VtHelper.php:152
    in C:\xampp\htdocs\cms_wap\common\controllers\ApiController.php:236
    in C:\xampp\htdocs\cms_wap\website\controllers\DefaultController.php:51
2022-01-14 07:47:51 [::1][-][-][info][yii\db\Command::query] SELECT `v`.* FROM `vt_video` `v` WHERE ((`v`.`id`='2248890') AND (`v`.`is_active`=1) AND (`v`.`is_no_copyright`=0)) AND (`v`.`status`=2)
    in C:\xampp\htdocs\cms_wap\common\models\VtVideoBase.php:151
    in C:\xampp\htdocs\cms_wap\common\modules\v1\controllers\DefaultController.php:289
    in C:\xampp\htdocs\cms_wap\website\controllers\DefaultController.php:372
2022-01-14 07:47:51 [::1][-][-][info][yii\db\Command::query] SELECT `c`.`id`, `c`.`type`, `c`.`comment`, `c`.`parent_id`, `c`.`created_at`, `c`.`status`, `c`.`like_count`, `c`.`dislike_count`, `u`.`full_name`, `u`.`msisdn`, `u`.`id` AS `user_id`, `u`.`path`, `u`.`bucket`, `u`.`channel_bucket`, `u`.`channel_path` FROM `vt_comment` `c` LEFT JOIN `vt_user` `u` ON c.user_id = u.id WHERE (type = 'VOD') AND (content_id = '2248890') AND (((user_id = '74' and (c.status = 0 or c.status = 1)) or c.status = 1)) AND (parent_id = 0 OR parent_id is null) ORDER BY `created_at` DESC, `id` DESC LIMIT 20
    in C:\xampp\htdocs\cms_wap\common\models\VtCommentBase.php:126
    in C:\xampp\htdocs\cms_wap\common\modules\v1\controllers\DefaultController.php:306
    in C:\xampp\htdocs\cms_wap\website\controllers\DefaultController.php:372
2022-01-14 07:47:51 [::1][-][-][info][yii\db\Command::query] SELECT `c`.`id`, `c`.`type`, `c`.`comment`, `c`.`parent_id`, `c`.`created_at`, `c`.`status`, `c`.`like_count`, `c`.`dislike_count`, `u`.`full_name`, `u`.`msisdn`, `u`.`id` AS `user_id`, `u`.`path`, `u`.`bucket`, `u`.`channel_bucket`, `u`.`channel_path` FROM `vt_comment` `c` LEFT JOIN `vt_user` `u` ON c.user_id = u.id WHERE (type = 'VOD') AND (content_id = '2248890') AND (((user_id = '74' and (c.status = 0 or c.status = 1)) or c.status = 1)) AND (parent_id = 0 OR parent_id is null) ORDER BY `created_at` DESC, `id` DESC
    in C:\xampp\htdocs\cms_wap\common\models\VtCommentBase.php:126
    in C:\xampp\htdocs\cms_wap\common\modules\v1\controllers\DefaultController.php:312
    in C:\xampp\htdocs\cms_wap\website\controllers\DefaultController.php:372
2022-01-14 07:47:51 [::1][-][-][info][application] Response time of /default/list-comment?type=VOD&content_id=2248890&offset=0&limit=20: 139 ms
    in C:\xampp\htdocs\cms_wap\common\controllers\ApiController.php:353
2022-01-14 07:47:51 [::1][-][-][info][application] $_GET = [
    'type' => 'VOD'
    'content_id' => '2248890'
    'offset' => '0'
    'limit' => '20'
]

$_POST = []

$_FILES = []

$_COOKIE = [
    'language' => 'd88ad7f0d1a7cb61248418846707b03b2cecc3ec9a3493e0a8e9f6176a969066a:2:{i:0;s:8:\"language\";i:1;s:5:\"en-US\";}'
    'Phpstorm-65568aef' => '1243b413-1936-42ae-9bbc-67a1a69d164e'
    '_identity' => '574360b07b1694b4067dd74392fcd43473138a66c38a6869f9b46ce27d0fc715a:2:{i:0;s:9:\"_identity\";i:1;s:50:\"[1,\"61ae9170-58dd-44be-b042-750b5427f85c\",2592000]\";}'
    '_ga' => 'GA1.1.1284773022.1641954535'
    '_gid' => 'GA1.1.42649815.1641954535'
    'isAutoPlay' => '1'
    '_csrf' => '00fe4670248b51ea36dd0da246e0fad28123fa35ca461e00bf25c2ad2b87e7b6a:2:{i:0;s:5:\"_csrf\";i:1;s:32:\"OCZj4NaJvXiAS9dzgHo9NQrpTrsXm97I\";}'
    'myvideo-backend' => 'mbapbljjgvd4dshqefrsob0ru3'
    '_csrf-backend' => 'b8e73b07fe8e51646320c3e2b79f792c30a665f98a7cf41e32d1aa1824cee8e7a:2:{i:0;s:13:\"_csrf-backend\";i:1;s:32:\"4iWf7HvuE8EscSzesat4RZc8SAvrXkLo\";}'
    'myvideo-frontend' => 'beogp91fa36gl0ddtma1fch8qk'
    '_gat_gtag_UA_187937055_1' => '1'
    '_ga_LJBHP3PL7L' => 'GS1.1.1642141909.11.1.1642142871.0'
]

$_SESSION = [
    '__flash' => []
    'avatarImage' => 'http://183.182.100.152:8080/uploads/image1/thumb/2021/12/19/1639898348265/e277fd00f9ba_180_180.png'
    'themeUserId' => 1
    'is_mp4_only' => 0
    'is_pc' => 1
    'vod_profile_id' => 6
    'is_iOS' => 0
    'distributionId' => 0
    'backUrl' => false
    '__captcha/auth/captcha' => 's4xmu6d'
    '__captcha/auth/captchacount' => 1
    'msisdn' => '258872032111'
    'userId' => '74'
    'fullName' => 'User 44455'
    'isShowSuggest' => 0
    'cpId' => null
    'isRedirect' => false
    'is_write_log_device' => 0
    'lang' => 'en'
]

$_SERVER = [
    'REDIRECT_MIBDIRS' => '/xampp/php/extras/mibs'
    'REDIRECT_MYSQL_HOME' => '\\xampp\\mysql\\bin'
    'REDIRECT_OPENSSL_CONF' => '/xampp/apache/bin/openssl.cnf'
    'REDIRECT_PHP_PEAR_SYSCONF_DIR' => '\\xampp\\php'
    'REDIRECT_PHPRC' => '\\xampp\\php'
    'REDIRECT_TMP' => '\\xampp\\tmp'
    'REDIRECT_STATUS' => '200'
    'MIBDIRS' => '/xampp/php/extras/mibs'
    'MYSQL_HOME' => '\\xampp\\mysql\\bin'
    'OPENSSL_CONF' => '/xampp/apache/bin/openssl.cnf'
    'PHP_PEAR_SYSCONF_DIR' => '\\xampp\\php'
    'PHPRC' => '\\xampp\\php'
    'TMP' => '\\xampp\\tmp'
    'HTTP_HOST' => 'localhost:81'
    'HTTP_CONNECTION' => 'keep-alive'
    'HTTP_SEC_CH_UA' => '\" Not;A Brand\";v=\"99\", \"Google Chrome\";v=\"97\", \"Chromium\";v=\"97\"'
    'HTTP_ACCEPT' => '*/*'
    'HTTP_X_REQUESTED_WITH' => 'XMLHttpRequest'
    'HTTP_SEC_CH_UA_MOBILE' => '?0'
    'HTTP_USER_AGENT' => 'Mozilla/5.0 (Windows NT 10.0; Win64; x64) AppleWebKit/537.36 (KHTML, like Gecko) Chrome/97.0.4692.71 Safari/537.36'
    'HTTP_SEC_CH_UA_PLATFORM' => '\"Windows\"'
    'HTTP_SEC_FETCH_SITE' => 'same-origin'
    'HTTP_SEC_FETCH_MODE' => 'cors'
    'HTTP_SEC_FETCH_DEST' => 'empty'
    'HTTP_REFERER' => 'http://localhost:81/video/2248890/video-cua-kenh-test-ngay-20?click_source=default&click_medium=video_owner'
    'HTTP_ACCEPT_ENCODING' => 'gzip, deflate, br'
    'HTTP_ACCEPT_LANGUAGE' => 'en-US,en;q=0.9'
    'HTTP_COOKIE' => 'language=d88ad7f0d1a7cb61248418846707b03b2cecc3ec9a3493e0a8e9f6176a969066a%3A2%3A%7Bi%3A0%3Bs%3A8%3A%22language%22%3Bi%3A1%3Bs%3A5%3A%22en-US%22%3B%7D; Phpstorm-65568aef=1243b413-1936-42ae-9bbc-67a1a69d164e; _identity=574360b07b1694b4067dd74392fcd43473138a66c38a6869f9b46ce27d0fc715a%3A2%3A%7Bi%3A0%3Bs%3A9%3A%22_identity%22%3Bi%3A1%3Bs%3A50%3A%22%5B1%2C%2261ae9170-58dd-44be-b042-750b5427f85c%22%2C2592000%5D%22%3B%7D; _ga=GA1.1.1284773022.1641954535; _gid=GA1.1.42649815.1641954535; isAutoPlay=1; _csrf=00fe4670248b51ea36dd0da246e0fad28123fa35ca461e00bf25c2ad2b87e7b6a%3A2%3A%7Bi%3A0%3Bs%3A5%3A%22_csrf%22%3Bi%3A1%3Bs%3A32%3A%22OCZj4NaJvXiAS9dzgHo9NQrpTrsXm97I%22%3B%7D; myvideo-backend=mbapbljjgvd4dshqefrsob0ru3; _csrf-backend=b8e73b07fe8e51646320c3e2b79f792c30a665f98a7cf41e32d1aa1824cee8e7a%3A2%3A%7Bi%3A0%3Bs%3A13%3A%22_csrf-backend%22%3Bi%3A1%3Bs%3A32%3A%224iWf7HvuE8EscSzesat4RZc8SAvrXkLo%22%3B%7D; myvideo-frontend=beogp91fa36gl0ddtma1fch8qk; _gat_gtag_UA_187937055_1=1; _ga_LJBHP3PL7L=GS1.1.1642141909.11.1.1642142871.0'
    'PATH' => 'C:\\Program Files (x86)\\Common Files\\NetSarang;C:\\Program Files (x86)\\Common Files\\Oracle\\Java\\javapath;C:\\Program Files (x86)\\NVIDIA Corporation\\PhysX\\Common;C:\\WINDOWS\\system32;C:\\WINDOWS;C:\\WINDOWS\\System32\\Wbem;C:\\WINDOWS\\System32\\WindowsPowerShell\\v1.0\\;C:\\WINDOWS\\System32\\OpenSSH\\;C:\\Program Files\\Microsoft SQL Server\\Client SDK\\ODBC\\170\\Tools\\Binn\\;C:\\Program Files (x86)\\Microsoft SQL Server\\150\\Tools\\Binn\\;C:\\Program Files\\Microsoft SQL Server\\150\\Tools\\Binn\\;C:\\Program Files\\Microsoft SQL Server\\150\\DTS\\Binn\\;C:\\Program Files\\TortoiseGit\\bin;C:\\Program Files\\Git\\cmd;C:\\Program Files\\dotnet\\;C:\\Program Files\\nodejs\\;C:\\Program Files (x86)\\dotnet\\;C:\\xampp\\php;C:\\composer;C:\\Program Files\\Redis\\;C:\\Users\\Asus R542\\AppData\\Local\\Microsoft\\WindowsApps;C:\\Program Files\\Azure Data Studio\\bin;C:\\Users\\Asus R542\\AppData\\Roaming\\npm;C:\\xampp\\php;C:\\Users\\Asus R542\\AppData\\Roaming\\Composer\\vendor\\bin'
    'SystemRoot' => 'C:\\WINDOWS'
    'COMSPEC' => 'C:\\WINDOWS\\system32\\cmd.exe'
    'PATHEXT' => '.COM;.EXE;.BAT;.CMD;.VBS;.VBE;.JS;.JSE;.WSF;.WSH;.MSC'
    'WINDIR' => 'C:\\WINDOWS'
    'SERVER_SIGNATURE' => '<address>Apache/2.4.29 (Win32) OpenSSL/1.0.2l PHP/7.1.11 Server at localhost Port 81</address>
'
    'SERVER_SOFTWARE' => 'Apache/2.4.29 (Win32) OpenSSL/1.0.2l PHP/7.1.11'
    'SERVER_NAME' => 'localhost'
    'SERVER_ADDR' => '::1'
    'SERVER_PORT' => '81'
    'REMOTE_ADDR' => '::1'
    'DOCUMENT_ROOT' => 'C:/xampp/htdocs/cms_wap/website/web'
    'REQUEST_SCHEME' => 'http'
    'CONTEXT_PREFIX' => ''
    'CONTEXT_DOCUMENT_ROOT' => 'C:/xampp/htdocs/cms_wap/website/web'
    'SERVER_ADMIN' => 'postmaster@localhost'
    'SCRIPT_FILENAME' => 'C:/xampp/htdocs/cms_wap/website/web/index.php'
    'REMOTE_PORT' => '55172'
    'REDIRECT_URL' => '/default/list-comment'
    'REDIRECT_QUERY_STRING' => 'type=VOD&content_id=2248890&offset=0&limit=20'
    'GATEWAY_INTERFACE' => 'CGI/1.1'
    'SERVER_PROTOCOL' => 'HTTP/1.1'
    'REQUEST_METHOD' => 'GET'
    'QUERY_STRING' => 'type=VOD&content_id=2248890&offset=0&limit=20'
    'REQUEST_URI' => '/default/list-comment?type=VOD&content_id=2248890&offset=0&limit=20'
    'SCRIPT_NAME' => '/index.php'
    'PHP_SELF' => '/index.php'
    'REQUEST_TIME_FLOAT' => 1642142871.632
    'REQUEST_TIME' => 1642142871
]
2022-01-14 07:47:51 [::1][-][-][info][yii\web\Session::open] Session started
    in C:\xampp\htdocs\cms_wap\common\controllers\ApiController.php:121
    in C:\xampp\htdocs\cms_wap\website\controllers\AccountController.php:47
2022-01-14 07:47:51 [::1][-][-][info][yii\db\Connection::open] Opening DB connection: mysql:host=192.168.146.252:3307;dbname=meuclip
    in C:\xampp\htdocs\cms_wap\common\models\VtUserBase.php:59
    in C:\xampp\htdocs\cms_wap\common\controllers\ApiController.php:224
    in C:\xampp\htdocs\cms_wap\website\controllers\AccountController.php:47
2022-01-14 07:47:51 [::1][-][-][info][yii\db\Command::query] SELECT * FROM `vt_user` WHERE `id`='74'
    in C:\xampp\htdocs\cms_wap\common\models\VtUserBase.php:59
    in C:\xampp\htdocs\cms_wap\common\controllers\ApiController.php:224
    in C:\xampp\htdocs\cms_wap\website\controllers\AccountController.php:47
2022-01-14 07:47:51 [::1][-][-][info][yii\db\Command::query] SHOW FULL COLUMNS FROM `vt_user`
    in C:\xampp\htdocs\cms_wap\common\models\VtUserBase.php:59
    in C:\xampp\htdocs\cms_wap\common\controllers\ApiController.php:224
    in C:\xampp\htdocs\cms_wap\website\controllers\AccountController.php:47
2022-01-14 07:47:51 [::1][-][-][info][yii\db\Command::query] SELECT
    kcu.constraint_name,
    kcu.column_name,
    kcu.referenced_table_name,
    kcu.referenced_column_name
FROM information_schema.referential_constraints AS rc
JOIN information_schema.key_column_usage AS kcu ON
    (
        kcu.constraint_catalog = rc.constraint_catalog OR
        (kcu.constraint_catalog IS NULL AND rc.constraint_catalog IS NULL)
    ) AND
    kcu.constraint_schema = rc.constraint_schema AND
    kcu.constraint_name = rc.constraint_name
WHERE rc.constraint_schema = database() AND kcu.table_schema = database()
AND rc.table_name = 'vt_user' AND kcu.table_name = 'vt_user'
    in C:\xampp\htdocs\cms_wap\common\models\VtUserBase.php:59
    in C:\xampp\htdocs\cms_wap\common\controllers\ApiController.php:224
    in C:\xampp\htdocs\cms_wap\website\controllers\AccountController.php:47
2022-01-14 07:47:51 [::1][-][-][info][application] WAF |
    in C:\xampp\htdocs\cms_wap\common\libs\VtHelper.php:152
    in C:\xampp\htdocs\cms_wap\common\controllers\ApiController.php:236
    in C:\xampp\htdocs\cms_wap\website\controllers\AccountController.php:47
2022-01-14 07:47:51 [::1][-][-][info][yii\db\Command::query] SELECT `v`.*, `u`.`id` AS `user_id`, `u`.`bucket` AS `user_bucket`, `u`.`path` AS `user_path`, `u`.`full_name`, `u`.`msisdn`, `cm`.`status` AS `comment_status`, `cm`.`reason` AS `comment_reject_reason` FROM `vt_video` `v` LEFT JOIN `vt_user` `u` ON u.id=v.created_by LEFT JOIN `vt_comment` `cm` ON cm.content_id = v.id WHERE ((`v`.`created_by`='74') AND (`v`.`status`=2) AND (`v`.`is_active`=1) AND (`v`.`is_no_copyright`=0) AND (`v`.`type`='VOD')) AND (v.published_time <= '2022-01-14 07:47:51') GROUP BY `content_id` HAVING SUM(cm.content_id) > 1 ORDER BY `v`.`published_time` DESC
    in C:\xampp\htdocs\cms_wap\common\modules\v2\controllers\AccountController.php:540
    in C:\xampp\htdocs\cms_wap\website\controllers\AccountController.php:1220
2022-01-14 07:47:51 [::1][-][-][info][yii\db\Command::query] SHOW FULL COLUMNS FROM `vt_video`
    in C:\xampp\htdocs\cms_wap\common\modules\v2\controllers\AccountController.php:540
    in C:\xampp\htdocs\cms_wap\website\controllers\AccountController.php:1220
2022-01-14 07:47:51 [::1][-][-][info][yii\db\Command::query] SELECT
    kcu.constraint_name,
    kcu.column_name,
    kcu.referenced_table_name,
    kcu.referenced_column_name
FROM information_schema.referential_constraints AS rc
JOIN information_schema.key_column_usage AS kcu ON
    (
        kcu.constraint_catalog = rc.constraint_catalog OR
        (kcu.constraint_catalog IS NULL AND rc.constraint_catalog IS NULL)
    ) AND
    kcu.constraint_schema = rc.constraint_schema AND
    kcu.constraint_name = rc.constraint_name
WHERE rc.constraint_schema = database() AND kcu.table_schema = database()
AND rc.table_name = 'vt_video' AND kcu.table_name = 'vt_video'
    in C:\xampp\htdocs\cms_wap\common\modules\v2\controllers\AccountController.php:540
    in C:\xampp\htdocs\cms_wap\website\controllers\AccountController.php:1220
2022-01-14 07:47:51 [::1][-][-][info][yii\db\Command::query] SELECT `c`.`id`, `c`.`type`, `c`.`comment`, `c`.`parent_id`, `c`.`created_at`, `c`.`status`, `c`.`like_count`, `c`.`dislike_count`, `u`.`full_name`, `u`.`msisdn`, `u`.`id` AS `user_id`, `u`.`path`, `u`.`bucket`, `u`.`channel_bucket`, `u`.`channel_path`, `c`.`content_id` FROM `vt_comment` `c` LEFT JOIN `vt_user` `u` ON c.user_id = u.id WHERE (`c`.`user_id` <> '74') AND (`c`.`content_id`='2248876') AND (c.status = 0) ORDER BY `created_at` DESC, `id` DESC
    in C:\xampp\htdocs\cms_wap\common\models\VtCommentBase.php:330
    in C:\xampp\htdocs\cms_wap\common\modules\v2\controllers\AccountController.php:543
    in C:\xampp\htdocs\cms_wap\website\controllers\AccountController.php:1220
2022-01-14 07:47:51 [::1][-][-][info][yii\db\Command::query] SELECT `c`.`id`, `c`.`type`, `c`.`comment`, `c`.`parent_id`, `c`.`created_at`, `c`.`status`, `c`.`like_count`, `c`.`dislike_count`, `u`.`full_name`, `u`.`msisdn`, `u`.`id` AS `user_id`, `u`.`path`, `u`.`bucket`, `u`.`channel_bucket`, `u`.`channel_path`, `c`.`content_id` FROM `vt_comment` `c` LEFT JOIN `vt_user` `u` ON c.user_id = u.id WHERE (`c`.`user_id` <> '74') AND (`c`.`content_id`='2248849') AND (c.status = 0) ORDER BY `created_at` DESC, `id` DESC
    in C:\xampp\htdocs\cms_wap\common\models\VtCommentBase.php:330
    in C:\xampp\htdocs\cms_wap\common\modules\v2\controllers\AccountController.php:543
    in C:\xampp\htdocs\cms_wap\website\controllers\AccountController.php:1220
2022-01-14 07:47:51 [::1][-][-][info][yii\db\Command::query] SELECT `c`.`id`, `c`.`type`, `c`.`comment`, `c`.`parent_id`, `c`.`created_at`, `c`.`status`, `c`.`like_count`, `c`.`dislike_count`, `u`.`full_name`, `u`.`msisdn`, `u`.`id` AS `user_id`, `u`.`path`, `u`.`bucket`, `u`.`channel_bucket`, `u`.`channel_path`, `c`.`content_id` FROM `vt_comment` `c` LEFT JOIN `vt_user` `u` ON c.user_id = u.id WHERE (`c`.`user_id` <> '74') AND (`c`.`content_id`='2248839') AND (c.status = 0) ORDER BY `created_at` DESC, `id` DESC
    in C:\xampp\htdocs\cms_wap\common\models\VtCommentBase.php:330
    in C:\xampp\htdocs\cms_wap\common\modules\v2\controllers\AccountController.php:543
    in C:\xampp\htdocs\cms_wap\website\controllers\AccountController.php:1220
2022-01-14 07:47:51 [::1][-][-][info][yii\db\Command::query] SELECT `c`.`id`, `c`.`type`, `c`.`comment`, `c`.`parent_id`, `c`.`created_at`, `c`.`status`, `c`.`like_count`, `c`.`dislike_count`, `u`.`full_name`, `u`.`msisdn`, `u`.`id` AS `user_id`, `u`.`path`, `u`.`bucket`, `u`.`channel_bucket`, `u`.`channel_path`, `c`.`content_id` FROM `vt_comment` `c` LEFT JOIN `vt_user` `u` ON c.user_id = u.id WHERE (`c`.`user_id` <> '74') AND (`c`.`content_id`='2248834') AND (c.status = 0) ORDER BY `created_at` DESC, `id` DESC
    in C:\xampp\htdocs\cms_wap\common\models\VtCommentBase.php:330
    in C:\xampp\htdocs\cms_wap\common\modules\v2\controllers\AccountController.php:543
    in C:\xampp\htdocs\cms_wap\website\controllers\AccountController.php:1220
2022-01-14 07:47:51 [::1][-][-][info][yii\db\Command::query] SELECT `c`.`id`, `c`.`type`, `c`.`comment`, `c`.`parent_id`, `c`.`created_at`, `c`.`status`, `c`.`like_count`, `c`.`dislike_count`, `u`.`full_name`, `u`.`msisdn`, `u`.`id` AS `user_id`, `u`.`path`, `u`.`bucket`, `u`.`channel_bucket`, `u`.`channel_path`, `c`.`content_id` FROM `vt_comment` `c` LEFT JOIN `vt_user` `u` ON c.user_id = u.id WHERE (`c`.`user_id` <> '74') AND (`c`.`content_id`='2248833') AND (c.status = 0) ORDER BY `created_at` DESC, `id` DESC
    in C:\xampp\htdocs\cms_wap\common\models\VtCommentBase.php:330
    in C:\xampp\htdocs\cms_wap\common\modules\v2\controllers\AccountController.php:543
    in C:\xampp\htdocs\cms_wap\website\controllers\AccountController.php:1220
2022-01-14 07:47:51 [::1][-][-][info][yii\db\Command::query] SELECT `c`.`id`, `c`.`type`, `c`.`comment`, `c`.`parent_id`, `c`.`created_at`, `c`.`status`, `c`.`like_count`, `c`.`dislike_count`, `u`.`full_name`, `u`.`msisdn`, `u`.`id` AS `user_id`, `u`.`path`, `u`.`bucket`, `u`.`channel_bucket`, `u`.`channel_path`, `c`.`content_id` FROM `vt_comment` `c` LEFT JOIN `vt_user` `u` ON c.user_id = u.id WHERE (`c`.`user_id` <> '74') AND (`c`.`content_id`='2248796') AND (c.status = 0) ORDER BY `created_at` DESC, `id` DESC
    in C:\xampp\htdocs\cms_wap\common\models\VtCommentBase.php:330
    in C:\xampp\htdocs\cms_wap\common\modules\v2\controllers\AccountController.php:543
    in C:\xampp\htdocs\cms_wap\website\controllers\AccountController.php:1220
2022-01-14 07:47:51 [::1][-][-][info][yii\db\Command::query] SELECT `c`.`id`, `c`.`type`, `c`.`comment`, `c`.`parent_id`, `c`.`created_at`, `c`.`status`, `c`.`like_count`, `c`.`dislike_count`, `u`.`full_name`, `u`.`msisdn`, `u`.`id` AS `user_id`, `u`.`path`, `u`.`bucket`, `u`.`channel_bucket`, `u`.`channel_path`, `c`.`content_id` FROM `vt_comment` `c` LEFT JOIN `vt_user` `u` ON c.user_id = u.id WHERE (`c`.`user_id` <> '74') AND (`c`.`content_id`='2248544') AND (c.status = 0) ORDER BY `created_at` DESC, `id` DESC
    in C:\xampp\htdocs\cms_wap\common\models\VtCommentBase.php:330
    in C:\xampp\htdocs\cms_wap\common\modules\v2\controllers\AccountController.php:543
    in C:\xampp\htdocs\cms_wap\website\controllers\AccountController.php:1220
2022-01-14 07:47:51 [::1][-][-][info][yii\db\Command::query] SELECT `c`.`id`, `c`.`type`, `c`.`comment`, `c`.`parent_id`, `c`.`created_at`, `c`.`status`, `c`.`like_count`, `c`.`dislike_count`, `u`.`full_name`, `u`.`msisdn`, `u`.`id` AS `user_id`, `u`.`path`, `u`.`bucket`, `u`.`channel_bucket`, `u`.`channel_path`, `c`.`content_id` FROM `vt_comment` `c` LEFT JOIN `vt_user` `u` ON c.user_id = u.id WHERE (`c`.`user_id` <> '74') AND (`c`.`content_id`='2248535') AND (c.status = 0) ORDER BY `created_at` DESC, `id` DESC
    in C:\xampp\htdocs\cms_wap\common\models\VtCommentBase.php:330
    in C:\xampp\htdocs\cms_wap\common\modules\v2\controllers\AccountController.php:543
    in C:\xampp\htdocs\cms_wap\website\controllers\AccountController.php:1220
2022-01-14 07:47:51 [::1][-][-][info][yii\db\Command::query] SELECT `c`.`id`, `c`.`type`, `c`.`comment`, `c`.`parent_id`, `c`.`created_at`, `c`.`status`, `c`.`like_count`, `c`.`dislike_count`, `u`.`full_name`, `u`.`msisdn`, `u`.`id` AS `user_id`, `u`.`path`, `u`.`bucket`, `u`.`channel_bucket`, `u`.`channel_path`, `c`.`content_id` FROM `vt_comment` `c` LEFT JOIN `vt_user` `u` ON c.user_id = u.id WHERE (`c`.`user_id` <> '74') AND (`c`.`content_id`='2248532') AND (c.status = 0) ORDER BY `created_at` DESC, `id` DESC
    in C:\xampp\htdocs\cms_wap\common\models\VtCommentBase.php:330
    in C:\xampp\htdocs\cms_wap\common\modules\v2\controllers\AccountController.php:543
    in C:\xampp\htdocs\cms_wap\website\controllers\AccountController.php:1220
2022-01-14 07:47:51 [::1][-][-][info][yii\db\Command::query] SELECT `c`.`id`, `c`.`type`, `c`.`comment`, `c`.`parent_id`, `c`.`created_at`, `c`.`status`, `c`.`like_count`, `c`.`dislike_count`, `u`.`full_name`, `u`.`msisdn`, `u`.`id` AS `user_id`, `u`.`path`, `u`.`bucket`, `u`.`channel_bucket`, `u`.`channel_path`, `c`.`content_id` FROM `vt_comment` `c` LEFT JOIN `vt_user` `u` ON c.user_id = u.id WHERE (`c`.`user_id` <> '74') AND (`c`.`content_id`='2248526') AND (c.status = 0) ORDER BY `created_at` DESC, `id` DESC
    in C:\xampp\htdocs\cms_wap\common\models\VtCommentBase.php:330
    in C:\xampp\htdocs\cms_wap\common\modules\v2\controllers\AccountController.php:543
    in C:\xampp\htdocs\cms_wap\website\controllers\AccountController.php:1220
2022-01-14 07:47:51 [::1][-][-][info][yii\db\Command::query] SELECT `c`.`id`, `c`.`type`, `c`.`comment`, `c`.`parent_id`, `c`.`created_at`, `c`.`status`, `c`.`like_count`, `c`.`dislike_count`, `u`.`full_name`, `u`.`msisdn`, `u`.`id` AS `user_id`, `u`.`path`, `u`.`bucket`, `u`.`channel_bucket`, `u`.`channel_path`, `c`.`content_id` FROM `vt_comment` `c` LEFT JOIN `vt_user` `u` ON c.user_id = u.id WHERE (`c`.`user_id` <> '74') AND (`c`.`content_id`='2248511') AND (c.status = 0) ORDER BY `created_at` DESC, `id` DESC
    in C:\xampp\htdocs\cms_wap\common\models\VtCommentBase.php:330
    in C:\xampp\htdocs\cms_wap\common\modules\v2\controllers\AccountController.php:543
    in C:\xampp\htdocs\cms_wap\website\controllers\AccountController.php:1220
2022-01-14 07:47:51 [::1][-][-][info][yii\db\Command::query] SELECT `c`.`id`, `c`.`type`, `c`.`comment`, `c`.`parent_id`, `c`.`created_at`, `c`.`status`, `c`.`like_count`, `c`.`dislike_count`, `u`.`full_name`, `u`.`msisdn`, `u`.`id` AS `user_id`, `u`.`path`, `u`.`bucket`, `u`.`channel_bucket`, `u`.`channel_path`, `c`.`content_id` FROM `vt_comment` `c` LEFT JOIN `vt_user` `u` ON c.user_id = u.id WHERE (`c`.`user_id` <> '74') AND (`c`.`content_id`='2245486') AND (c.status = 0) ORDER BY `created_at` DESC, `id` DESC
    in C:\xampp\htdocs\cms_wap\common\models\VtCommentBase.php:330
    in C:\xampp\htdocs\cms_wap\common\modules\v2\controllers\AccountController.php:543
    in C:\xampp\htdocs\cms_wap\website\controllers\AccountController.php:1220
2022-01-14 07:47:51 [::1][-][-][info][yii\db\Command::query] SELECT `c`.`id`, `c`.`type`, `c`.`comment`, `c`.`parent_id`, `c`.`created_at`, `c`.`status`, `c`.`like_count`, `c`.`dislike_count`, `u`.`full_name`, `u`.`msisdn`, `u`.`id` AS `user_id`, `u`.`path`, `u`.`bucket`, `u`.`channel_bucket`, `u`.`channel_path`, `c`.`content_id` FROM `vt_comment` `c` LEFT JOIN `vt_user` `u` ON c.user_id = u.id WHERE (`c`.`user_id` <> '74') AND (`c`.`content_id`='2240518') AND (c.status = 0) ORDER BY `created_at` DESC, `id` DESC
    in C:\xampp\htdocs\cms_wap\common\models\VtCommentBase.php:330
    in C:\xampp\htdocs\cms_wap\common\modules\v2\controllers\AccountController.php:543
    in C:\xampp\htdocs\cms_wap\website\controllers\AccountController.php:1220
2022-01-14 07:47:51 [::1][-][-][info][yii\db\Command::query] SELECT `c`.`id`, `c`.`type`, `c`.`comment`, `c`.`parent_id`, `c`.`created_at`, `c`.`status`, `c`.`like_count`, `c`.`dislike_count`, `u`.`full_name`, `u`.`msisdn`, `u`.`id` AS `user_id`, `u`.`path`, `u`.`bucket`, `u`.`channel_bucket`, `u`.`channel_path`, `c`.`content_id` FROM `vt_comment` `c` LEFT JOIN `vt_user` `u` ON c.user_id = u.id WHERE (`c`.`user_id` <> '74') AND (`c`.`content_id`='2239909') AND (c.status = 0) ORDER BY `created_at` DESC, `id` DESC
    in C:\xampp\htdocs\cms_wap\common\models\VtCommentBase.php:330
    in C:\xampp\htdocs\cms_wap\common\modules\v2\controllers\AccountController.php:543
    in C:\xampp\htdocs\cms_wap\website\controllers\AccountController.php:1220
2022-01-14 07:47:51 [::1][-][-][info][yii\db\Command::query] SELECT `c`.`id`, `c`.`type`, `c`.`comment`, `c`.`parent_id`, `c`.`created_at`, `c`.`status`, `c`.`like_count`, `c`.`dislike_count`, `u`.`full_name`, `u`.`msisdn`, `u`.`id` AS `user_id`, `u`.`path`, `u`.`bucket`, `u`.`channel_bucket`, `u`.`channel_path`, `c`.`content_id` FROM `vt_comment` `c` LEFT JOIN `vt_user` `u` ON c.user_id = u.id WHERE (`c`.`user_id` <> '74') AND (`c`.`content_id`='2239897') AND (c.status = 0) ORDER BY `created_at` DESC, `id` DESC
    in C:\xampp\htdocs\cms_wap\common\models\VtCommentBase.php:330
    in C:\xampp\htdocs\cms_wap\common\modules\v2\controllers\AccountController.php:543
    in C:\xampp\htdocs\cms_wap\website\controllers\AccountController.php:1220
2022-01-14 07:47:51 [::1][-][-][info][yii\db\Command::query] SELECT `c`.`id`, `c`.`type`, `c`.`comment`, `c`.`parent_id`, `c`.`created_at`, `c`.`status`, `c`.`like_count`, `c`.`dislike_count`, `u`.`full_name`, `u`.`msisdn`, `u`.`id` AS `user_id`, `u`.`path`, `u`.`bucket`, `u`.`channel_bucket`, `u`.`channel_path`, `c`.`content_id` FROM `vt_comment` `c` LEFT JOIN `vt_user` `u` ON c.user_id = u.id WHERE (`c`.`user_id` <> '74') AND (`c`.`content_id`='2239900') AND (c.status = 0) ORDER BY `created_at` DESC, `id` DESC
    in C:\xampp\htdocs\cms_wap\common\models\VtCommentBase.php:330
    in C:\xampp\htdocs\cms_wap\common\modules\v2\controllers\AccountController.php:543
    in C:\xampp\htdocs\cms_wap\website\controllers\AccountController.php:1220
2022-01-14 07:47:51 [::1][-][-][info][yii\db\Command::query] SELECT `c`.`id`, `c`.`type`, `c`.`comment`, `c`.`parent_id`, `c`.`created_at`, `c`.`status`, `c`.`like_count`, `c`.`dislike_count`, `u`.`full_name`, `u`.`msisdn`, `u`.`id` AS `user_id`, `u`.`path`, `u`.`bucket`, `u`.`channel_bucket`, `u`.`channel_path`, `c`.`content_id` FROM `vt_comment` `c` LEFT JOIN `vt_user` `u` ON c.user_id = u.id WHERE (`c`.`user_id` <> '74') AND (`c`.`content_id`='2239891') AND (c.status = 0) ORDER BY `created_at` DESC, `id` DESC
    in C:\xampp\htdocs\cms_wap\common\models\VtCommentBase.php:330
    in C:\xampp\htdocs\cms_wap\common\modules\v2\controllers\AccountController.php:543
    in C:\xampp\htdocs\cms_wap\website\controllers\AccountController.php:1220
2022-01-14 07:47:51 [::1][-][-][info][application] Response time of /account/get-number-notification: 119 ms
    in C:\xampp\htdocs\cms_wap\common\controllers\ApiController.php:353
2022-01-14 07:47:51 [::1][-][-][info][application] $_GET = []

$_POST = []

$_FILES = []

$_COOKIE = [
    'language' => 'd88ad7f0d1a7cb61248418846707b03b2cecc3ec9a3493e0a8e9f6176a969066a:2:{i:0;s:8:\"language\";i:1;s:5:\"en-US\";}'
    'Phpstorm-65568aef' => '1243b413-1936-42ae-9bbc-67a1a69d164e'
    '_identity' => '574360b07b1694b4067dd74392fcd43473138a66c38a6869f9b46ce27d0fc715a:2:{i:0;s:9:\"_identity\";i:1;s:50:\"[1,\"61ae9170-58dd-44be-b042-750b5427f85c\",2592000]\";}'
    '_ga' => 'GA1.1.1284773022.1641954535'
    '_gid' => 'GA1.1.42649815.1641954535'
    'isAutoPlay' => '1'
    '_csrf' => '00fe4670248b51ea36dd0da246e0fad28123fa35ca461e00bf25c2ad2b87e7b6a:2:{i:0;s:5:\"_csrf\";i:1;s:32:\"OCZj4NaJvXiAS9dzgHo9NQrpTrsXm97I\";}'
    'myvideo-backend' => 'mbapbljjgvd4dshqefrsob0ru3'
    '_csrf-backend' => 'b8e73b07fe8e51646320c3e2b79f792c30a665f98a7cf41e32d1aa1824cee8e7a:2:{i:0;s:13:\"_csrf-backend\";i:1;s:32:\"4iWf7HvuE8EscSzesat4RZc8SAvrXkLo\";}'
    'myvideo-frontend' => 'beogp91fa36gl0ddtma1fch8qk'
    '_gat_gtag_UA_187937055_1' => '1'
    '_ga_LJBHP3PL7L' => 'GS1.1.1642141909.11.1.1642142871.0'
]

$_SESSION = [
    '__flash' => []
    'avatarImage' => 'http://183.182.100.152:8080/uploads/image1/thumb/2021/12/19/1639898348265/e277fd00f9ba_180_180.png'
    'themeUserId' => 1
    'is_mp4_only' => 0
    'is_pc' => 1
    'vod_profile_id' => 6
    'is_iOS' => 0
    'distributionId' => 0
    'backUrl' => false
    '__captcha/auth/captcha' => 's4xmu6d'
    '__captcha/auth/captchacount' => 1
    'msisdn' => '258872032111'
    'userId' => '74'
    'fullName' => 'User 44455'
    'isShowSuggest' => 0
    'cpId' => null
    'isRedirect' => false
    'is_write_log_device' => 0
    'lang' => 'en'
]

$_SERVER = [
    'REDIRECT_MIBDIRS' => '/xampp/php/extras/mibs'
    'REDIRECT_MYSQL_HOME' => '\\xampp\\mysql\\bin'
    'REDIRECT_OPENSSL_CONF' => '/xampp/apache/bin/openssl.cnf'
    'REDIRECT_PHP_PEAR_SYSCONF_DIR' => '\\xampp\\php'
    'REDIRECT_PHPRC' => '\\xampp\\php'
    'REDIRECT_TMP' => '\\xampp\\tmp'
    'REDIRECT_STATUS' => '200'
    'MIBDIRS' => '/xampp/php/extras/mibs'
    'MYSQL_HOME' => '\\xampp\\mysql\\bin'
    'OPENSSL_CONF' => '/xampp/apache/bin/openssl.cnf'
    'PHP_PEAR_SYSCONF_DIR' => '\\xampp\\php'
    'PHPRC' => '\\xampp\\php'
    'TMP' => '\\xampp\\tmp'
    'HTTP_HOST' => 'localhost:81'
    'HTTP_CONNECTION' => 'keep-alive'
    'HTTP_SEC_CH_UA' => '\" Not;A Brand\";v=\"99\", \"Google Chrome\";v=\"97\", \"Chromium\";v=\"97\"'
    'HTTP_ACCEPT' => '*/*'
    'HTTP_X_REQUESTED_WITH' => 'XMLHttpRequest'
    'HTTP_SEC_CH_UA_MOBILE' => '?0'
    'HTTP_USER_AGENT' => 'Mozilla/5.0 (Windows NT 10.0; Win64; x64) AppleWebKit/537.36 (KHTML, like Gecko) Chrome/97.0.4692.71 Safari/537.36'
    'HTTP_SEC_CH_UA_PLATFORM' => '\"Windows\"'
    'HTTP_SEC_FETCH_SITE' => 'same-origin'
    'HTTP_SEC_FETCH_MODE' => 'cors'
    'HTTP_SEC_FETCH_DEST' => 'empty'
    'HTTP_REFERER' => 'http://localhost:81/video/2248890/video-cua-kenh-test-ngay-20?click_source=default&click_medium=video_owner'
    'HTTP_ACCEPT_ENCODING' => 'gzip, deflate, br'
    'HTTP_ACCEPT_LANGUAGE' => 'en-US,en;q=0.9'
    'HTTP_COOKIE' => 'language=d88ad7f0d1a7cb61248418846707b03b2cecc3ec9a3493e0a8e9f6176a969066a%3A2%3A%7Bi%3A0%3Bs%3A8%3A%22language%22%3Bi%3A1%3Bs%3A5%3A%22en-US%22%3B%7D; Phpstorm-65568aef=1243b413-1936-42ae-9bbc-67a1a69d164e; _identity=574360b07b1694b4067dd74392fcd43473138a66c38a6869f9b46ce27d0fc715a%3A2%3A%7Bi%3A0%3Bs%3A9%3A%22_identity%22%3Bi%3A1%3Bs%3A50%3A%22%5B1%2C%2261ae9170-58dd-44be-b042-750b5427f85c%22%2C2592000%5D%22%3B%7D; _ga=GA1.1.1284773022.1641954535; _gid=GA1.1.42649815.1641954535; isAutoPlay=1; _csrf=00fe4670248b51ea36dd0da246e0fad28123fa35ca461e00bf25c2ad2b87e7b6a%3A2%3A%7Bi%3A0%3Bs%3A5%3A%22_csrf%22%3Bi%3A1%3Bs%3A32%3A%22OCZj4NaJvXiAS9dzgHo9NQrpTrsXm97I%22%3B%7D; myvideo-backend=mbapbljjgvd4dshqefrsob0ru3; _csrf-backend=b8e73b07fe8e51646320c3e2b79f792c30a665f98a7cf41e32d1aa1824cee8e7a%3A2%3A%7Bi%3A0%3Bs%3A13%3A%22_csrf-backend%22%3Bi%3A1%3Bs%3A32%3A%224iWf7HvuE8EscSzesat4RZc8SAvrXkLo%22%3B%7D; myvideo-frontend=beogp91fa36gl0ddtma1fch8qk; _gat_gtag_UA_187937055_1=1; _ga_LJBHP3PL7L=GS1.1.1642141909.11.1.1642142871.0'
    'PATH' => 'C:\\Program Files (x86)\\Common Files\\NetSarang;C:\\Program Files (x86)\\Common Files\\Oracle\\Java\\javapath;C:\\Program Files (x86)\\NVIDIA Corporation\\PhysX\\Common;C:\\WINDOWS\\system32;C:\\WINDOWS;C:\\WINDOWS\\System32\\Wbem;C:\\WINDOWS\\System32\\WindowsPowerShell\\v1.0\\;C:\\WINDOWS\\System32\\OpenSSH\\;C:\\Program Files\\Microsoft SQL Server\\Client SDK\\ODBC\\170\\Tools\\Binn\\;C:\\Program Files (x86)\\Microsoft SQL Server\\150\\Tools\\Binn\\;C:\\Program Files\\Microsoft SQL Server\\150\\Tools\\Binn\\;C:\\Program Files\\Microsoft SQL Server\\150\\DTS\\Binn\\;C:\\Program Files\\TortoiseGit\\bin;C:\\Program Files\\Git\\cmd;C:\\Program Files\\dotnet\\;C:\\Program Files\\nodejs\\;C:\\Program Files (x86)\\dotnet\\;C:\\xampp\\php;C:\\composer;C:\\Program Files\\Redis\\;C:\\Users\\Asus R542\\AppData\\Local\\Microsoft\\WindowsApps;C:\\Program Files\\Azure Data Studio\\bin;C:\\Users\\Asus R542\\AppData\\Roaming\\npm;C:\\xampp\\php;C:\\Users\\Asus R542\\AppData\\Roaming\\Composer\\vendor\\bin'
    'SystemRoot' => 'C:\\WINDOWS'
    'COMSPEC' => 'C:\\WINDOWS\\system32\\cmd.exe'
    'PATHEXT' => '.COM;.EXE;.BAT;.CMD;.VBS;.VBE;.JS;.JSE;.WSF;.WSH;.MSC'
    'WINDIR' => 'C:\\WINDOWS'
    'SERVER_SIGNATURE' => '<address>Apache/2.4.29 (Win32) OpenSSL/1.0.2l PHP/7.1.11 Server at localhost Port 81</address>
'
    'SERVER_SOFTWARE' => 'Apache/2.4.29 (Win32) OpenSSL/1.0.2l PHP/7.1.11'
    'SERVER_NAME' => 'localhost'
    'SERVER_ADDR' => '::1'
    'SERVER_PORT' => '81'
    'REMOTE_ADDR' => '::1'
    'DOCUMENT_ROOT' => 'C:/xampp/htdocs/cms_wap/website/web'
    'REQUEST_SCHEME' => 'http'
    'CONTEXT_PREFIX' => ''
    'CONTEXT_DOCUMENT_ROOT' => 'C:/xampp/htdocs/cms_wap/website/web'
    'SERVER_ADMIN' => 'postmaster@localhost'
    'SCRIPT_FILENAME' => 'C:/xampp/htdocs/cms_wap/website/web/index.php'
    'REMOTE_PORT' => '55175'
    'REDIRECT_URL' => '/account/get-number-notification'
    'GATEWAY_INTERFACE' => 'CGI/1.1'
    'SERVER_PROTOCOL' => 'HTTP/1.1'
    'REQUEST_METHOD' => 'GET'
    'QUERY_STRING' => ''
    'REQUEST_URI' => '/account/get-number-notification'
    'SCRIPT_NAME' => '/index.php'
    'PHP_SELF' => '/index.php'
    'REQUEST_TIME_FLOAT' => 1642142871.669
    'REQUEST_TIME' => 1642142871
]
